<?xml version="1.0" encoding="UTF-8"?>
<!DOCTYPE svg PUBLIC '-//W3C//DTD SVG 1.0//EN'
        'http://www.w3.org/TR/2001/REC-SVG-20010904/DTD/svg10.dtd'>
<svg fill-opacity="0" xmlns:xlink="http://www.w3.org/1999/xlink" color-rendering="auto" color-interpolation="auto"
     text-rendering="auto" stroke="rgb(0,0,0)" stroke-linecap="square" width="980" stroke-miterlimit="10"
     shape-rendering="auto" stroke-opacity="0" fill="rgb(0,0,0)" stroke-dasharray="none" font-weight="normal"
     stroke-width="1" height="316" xmlns="http://www.w3.org/2000/svg" font-family="'Dialog'" font-style="normal"
     stroke-linejoin="miter" font-size="12px" stroke-dashoffset="0" image-rendering="auto"
><!--Generated by the Batik Graphics2D SVG Generator-->
    <defs id="genericDefs"
    />
    <g
    >
        <defs id="defs1"
        >
            <clipPath clipPathUnits="userSpaceOnUse" id="clipPath1"
            >
                <path d="M-7 -7 L19 -7 L19 23 L-7 23 L-7 -7 Z"
                />
            </clipPath
            >
            <clipPath clipPathUnits="userSpaceOnUse" id="clipPath2"
            >
                <path d="M-7 -7 L71 -7 L71 283 L-7 283 L-7 -7 Z"
                />
            </clipPath
            >
            <clipPath clipPathUnits="userSpaceOnUse" id="clipPath3"
            >
                <path d="M-7 -7 L81 -7 L81 283 L-7 283 L-7 -7 Z"
                />
            </clipPath
            >
            <clipPath clipPathUnits="userSpaceOnUse" id="clipPath4"
            >
                <path d="M-7 -7 L19 -7 L19 54 L-7 54 L-7 -7 Z"
                />
            </clipPath
            >
            <clipPath clipPathUnits="userSpaceOnUse" id="clipPath5"
            >
                <path d="M-7 -7 L19 -7 L19 61 L-7 61 L-7 -7 Z"
                />
            </clipPath
            >
            <clipPath clipPathUnits="userSpaceOnUse" id="clipPath6"
            >
                <path d="M-7 -7 L19 -7 L19 59 L-7 59 L-7 -7 Z"
                />
            </clipPath
            >
            <clipPath clipPathUnits="userSpaceOnUse" id="clipPath7"
            >
                <path d="M-81 -15 L162 -15 L162 30 L-81 30 L-81 -15 Z"
                />
            </clipPath
            >
            <clipPath clipPathUnits="userSpaceOnUse" id="clipPath8"
            >
                <path d="M-70 -15 L140 -15 L140 30 L-70 30 L-70 -15 Z"
                />
            </clipPath
            >
            <clipPath clipPathUnits="userSpaceOnUse" id="clipPath9"
            >
                <path d="M0 0 L890 0 L890 104 L0 104 L0 0 Z"
                />
            </clipPath
            >
            <clipPath clipPathUnits="userSpaceOnUse" id="clipPath10"
            >
                <path d="M87 9 L87 24 L6 24 L6 9 ZM561 30 L561 45 L322 45 L322 30 ZM698 58 L698 73 L176 73 L176 58 ZM0 0 L0 104 L373 104 L373 92 L508 92 L508 104 L890 104 L890 0 Z"
                />
            </clipPath
            >
            <clipPath clipPathUnits="userSpaceOnUse" id="clipPath11"
            >
                <path d="M698 27 L698 42 L176 42 L176 27 ZM508 61 L508 76 L373 76 L373 61 ZM0 0 L0 104 L322 104 L322 99 L549 99 L549 104 L890 104 L890 0 L561 0 L561 14 L322 14 L322 0 Z"
                />
            </clipPath
            >
            <clipPath clipPathUnits="userSpaceOnUse" id="clipPath12"
            >
                <path d="M508 30 L508 45 L373 45 L373 30 ZM549 68 L549 83 L322 83 L322 68 ZM0 0 L0 104 L358 104 L358 97 L514 97 L514 104 L890 104 L890 0 L698 0 L698 11 L176 11 L176 0 Z"
                />
            </clipPath
            >
            <clipPath clipPathUnits="userSpaceOnUse" id="clipPath13"
            >
                <path d="M549 30 L549 45 L322 45 L322 30 ZM514 59 L514 74 L358 74 L358 59 ZM0 0 L0 104 L347 104 L347 92 L517 92 L517 104 L890 104 L890 0 L508 0 L508 7 L373 7 L373 0 Z"
                />
            </clipPath
            >
            <clipPath clipPathUnits="userSpaceOnUse" id="clipPath14"
            >
                <path d="M514 28 L514 43 L358 43 L358 28 ZM517 61 L517 76 L347 76 L347 61 ZM0 0 L0 104 L890 104 L890 0 L549 0 L549 14 L322 14 L322 0 Z"
                />
            </clipPath
            >
            <clipPath clipPathUnits="userSpaceOnUse" id="clipPath15"
            >
                <path d="M517 28 L517 43 L347 43 L347 28 ZM0 0 L0 104 L890 104 L890 0 L514 0 L514 10 L358 10 L358 0 Z"
                />
            </clipPath
            >
            <clipPath clipPathUnits="userSpaceOnUse" id="clipPath16"
            >
                <path d="M-170 -15 L340 -15 L340 30 L-170 30 L-170 -15 Z"
                />
            </clipPath
            >
            <clipPath clipPathUnits="userSpaceOnUse" id="clipPath17"
            >
                <path d="M-156 -15 L312 -15 L312 30 L-156 30 L-156 -15 Z"
                />
            </clipPath
            >
            <clipPath clipPathUnits="userSpaceOnUse" id="clipPath18"
            >
                <path d="M-227 -15 L454 -15 L454 30 L-227 30 L-227 -15 Z"
                />
            </clipPath
            >
            <clipPath clipPathUnits="userSpaceOnUse" id="clipPath19"
            >
                <path d="M-135 -15 L270 -15 L270 30 L-135 30 L-135 -15 Z"
                />
            </clipPath
            >
            <clipPath clipPathUnits="userSpaceOnUse" id="clipPath20"
            >
                <path d="M-522 -15 L1044 -15 L1044 30 L-522 30 L-522 -15 Z"
                />
            </clipPath
            >
            <clipPath clipPathUnits="userSpaceOnUse" id="clipPath21"
            >
                <path d="M-239 -15 L478 -15 L478 30 L-239 30 L-239 -15 Z"
                />
            </clipPath
            >
        </defs
        >
        <g fill="white" text-rendering="geometricPrecision" fill-opacity="1" stroke-opacity="1" stroke="white"
        >
            <rect x="0" width="980" height="316" y="0" stroke="none"
            />
        </g
        >
        <g font-size="11px" fill-opacity="1" fill="rgb(122,207,245)" text-rendering="geometricPrecision"
           image-rendering="optimizeQuality" font-family="sans-serif" stroke="rgb(122,207,245)" stroke-opacity="1"
        >
            <rect x="0" width="8" height="12" y="0" clip-path="url(#clipPath1)" stroke="none"
            />
        </g
        >
        <g stroke-linecap="butt" font-size="11px" fill-opacity="1" fill="black" text-rendering="geometricPrecision"
           image-rendering="optimizeQuality" font-family="sans-serif" stroke-linejoin="round" stroke="black"
           stroke-opacity="1" stroke-miterlimit="0"
        >
            <rect fill="none" x="0" width="8" height="12" y="0" clip-path="url(#clipPath1)"
            />
        </g
        >
        <g font-size="11px" fill-opacity="1" fill="rgb(122,207,245)" text-rendering="geometricPrecision"
           image-rendering="optimizeQuality" font-family="sans-serif" stroke="rgb(122,207,245)" stroke-opacity="1"
        >
            <rect x="0" width="8" height="12" y="0" clip-path="url(#clipPath1)" stroke="none"
            />
        </g
        >
        <g stroke-linecap="butt" font-size="11px" fill-opacity="1" fill="black" text-rendering="geometricPrecision"
           image-rendering="optimizeQuality" font-family="sans-serif" stroke-linejoin="round" stroke="black"
           stroke-opacity="1" stroke-miterlimit="0"
        >
            <rect fill="none" x="0" width="8" height="12" y="0" clip-path="url(#clipPath1)"
            />
        </g
        >
        <g font-size="11px" fill-opacity="1" fill="rgb(122,207,245)" text-rendering="geometricPrecision"
           image-rendering="optimizeQuality" font-family="sans-serif" stroke="rgb(122,207,245)" stroke-opacity="1"
        >
            <rect x="0" width="8" height="12" y="0" clip-path="url(#clipPath1)" stroke="none"
            />
        </g
        >
        <g stroke-linecap="butt" font-size="11px" fill-opacity="1" fill="black" text-rendering="geometricPrecision"
           image-rendering="optimizeQuality" font-family="sans-serif" stroke-linejoin="round" stroke="black"
           stroke-opacity="1" stroke-miterlimit="0"
        >
            <rect fill="none" x="0" width="8" height="12" y="0" clip-path="url(#clipPath1)"
            />
        </g
        >
        <g font-size="11px" fill-opacity="1" fill="rgb(122,207,245)" text-rendering="geometricPrecision"
           image-rendering="optimizeQuality" font-family="sans-serif" stroke="rgb(122,207,245)" stroke-opacity="1"
        >
            <rect x="0" width="8" height="12" y="0" clip-path="url(#clipPath1)" stroke="none"
            />
        </g
        >
        <g stroke-linecap="butt" font-size="11px" fill-opacity="1" fill="black" text-rendering="geometricPrecision"
           image-rendering="optimizeQuality" font-family="sans-serif" stroke-linejoin="round" stroke="black"
           stroke-opacity="1" stroke-miterlimit="0"
        >
            <rect fill="none" x="0" width="8" height="12" y="0" clip-path="url(#clipPath1)"
            />
        </g
        >
        <g font-size="11px" transform="translate(117,40)" fill-opacity="1" fill="rgb(122,207,245)"
           text-rendering="geometricPrecision" image-rendering="optimizeQuality" font-family="sans-serif"
           stroke="rgb(122,207,245)" stroke-opacity="1"
        >
            <circle r="5" clip-path="url(#clipPath2)" cx="30" cy="5" stroke="none"
            />
            <rect x="26" width="8" height="221" y="50" clip-path="url(#clipPath2)" stroke="none"
            />
        </g
        >
        <g stroke-linecap="butt" font-size="11px" transform="translate(117,40)" fill-opacity="1" fill="black"
           text-rendering="geometricPrecision" image-rendering="optimizeQuality" font-family="sans-serif"
           stroke-linejoin="round" stroke="black" stroke-opacity="1" stroke-miterlimit="0"
        >
            <circle fill="none" r="5" clip-path="url(#clipPath2)" cx="30" cy="5"
            />
            <rect fill="none" x="26" width="8" height="221" y="50" clip-path="url(#clipPath2)"
            />
            <line y2="25" fill="none" x1="30" clip-path="url(#clipPath2)" x2="30" y1="10"
            />
            <line y2="36" fill="none" x1="30" clip-path="url(#clipPath2)" x2="21" y1="25"
            />
            <line y2="36" fill="none" x1="30" clip-path="url(#clipPath2)" x2="39" y1="25"
            />
            <line y2="16" fill="none" x1="21" clip-path="url(#clipPath2)" x2="39" y1="16"
            />
        </g
        >
        <g font-size="11px" transform="translate(906,40)" fill-opacity="1" fill="rgb(122,207,245)"
           text-rendering="geometricPrecision" image-rendering="optimizeQuality" font-family="sans-serif"
           stroke="rgb(122,207,245)" stroke-opacity="1"
        >
            <rect x="0" width="69" height="35" y="0" clip-path="url(#clipPath3)" stroke="none"
            />
        </g
        >
        <g stroke-linecap="butt" font-size="11px" transform="translate(906,40)" fill-opacity="1" fill="black"
           text-rendering="geometricPrecision" image-rendering="optimizeQuality" font-family="sans-serif"
           stroke-linejoin="round" stroke="black" stroke-opacity="1" stroke-miterlimit="0"
        >
            <rect fill="none" x="0" width="69" height="35" y="0" clip-path="url(#clipPath3)"
            />
            <line clip-path="url(#clipPath3)" fill="none" x1="34" x2="34" y1="35" y2="272" stroke-linejoin="bevel"
                  stroke-dasharray="8,3"
            />
        </g
        >
        <g font-size="11px" transform="translate(937,116)" fill-opacity="1" fill="rgb(122,207,245)"
           text-rendering="geometricPrecision" image-rendering="optimizeQuality" font-family="sans-serif"
           stroke="rgb(122,207,245)" stroke-opacity="1"
        >
            <rect x="0" width="8" height="43" y="0" clip-path="url(#clipPath4)" stroke="none"
            />
        </g
        >
        <g stroke-linecap="butt" font-size="11px" transform="translate(937,116)" fill-opacity="1" fill="black"
           text-rendering="geometricPrecision" image-rendering="optimizeQuality" font-family="sans-serif"
           stroke-linejoin="round" stroke="black" stroke-opacity="1" stroke-miterlimit="0"
        >
            <rect fill="none" x="0" width="8" height="43" y="0" clip-path="url(#clipPath4)"
            />
        </g
        >
        <g font-size="11px" transform="translate(937,178)" fill-opacity="1" fill="rgb(122,207,245)"
           text-rendering="geometricPrecision" image-rendering="optimizeQuality" font-family="sans-serif"
           stroke="rgb(122,207,245)" stroke-opacity="1"
        >
            <rect x="0" width="8" height="50" y="0" clip-path="url(#clipPath5)" stroke="none"
            />
        </g
        >
        <g stroke-linecap="butt" font-size="11px" transform="translate(937,178)" fill-opacity="1" fill="black"
           text-rendering="geometricPrecision" image-rendering="optimizeQuality" font-family="sans-serif"
           stroke-linejoin="round" stroke="black" stroke-opacity="1" stroke-miterlimit="0"
        >
            <rect fill="none" x="0" width="8" height="50" y="0" clip-path="url(#clipPath5)"
            />
        </g
        >
        <g font-size="11px" transform="translate(937,244)" fill-opacity="1" fill="rgb(122,207,245)"
           text-rendering="geometricPrecision" image-rendering="optimizeQuality" font-family="sans-serif"
           stroke="rgb(122,207,245)" stroke-opacity="1"
        >
            <rect x="0" width="8" height="48" y="0" clip-path="url(#clipPath6)" stroke="none"
            />
        </g
        >
        <g stroke-linecap="butt" font-size="11px" transform="translate(937,244)" fill-opacity="1" fill="black"
           text-rendering="geometricPrecision" image-rendering="optimizeQuality" font-family="sans-serif"
           stroke-linejoin="round" stroke="black" stroke-opacity="1" stroke-miterlimit="0"
        >
            <rect fill="none" x="0" width="8" height="48" y="0" clip-path="url(#clipPath6)"
            />
        </g
        >
        <g font-size="11px" fill-opacity="1" fill="rgb(122,207,245)" text-rendering="geometricPrecision"
           image-rendering="optimizeQuality" font-family="sans-serif" stroke="rgb(122,207,245)" stroke-opacity="1"
        >
            <rect x="0" width="8" height="12" y="0" clip-path="url(#clipPath1)" stroke="none"
            />
        </g
        >
        <g stroke-linecap="butt" font-size="11px" fill-opacity="1" fill="black" text-rendering="geometricPrecision"
           image-rendering="optimizeQuality" font-family="sans-serif" stroke-linejoin="round" stroke="black"
           stroke-opacity="1" stroke-miterlimit="0"
        >
            <rect fill="none" x="0" width="8" height="12" y="0" clip-path="url(#clipPath1)"
            />
        </g
        >
        <g font-size="11px" fill-opacity="1" fill="rgb(122,207,245)" text-rendering="geometricPrecision"
           image-rendering="optimizeQuality" font-family="sans-serif" stroke="rgb(122,207,245)" stroke-opacity="1"
        >
            <rect x="0" width="8" height="12" y="0" clip-path="url(#clipPath1)" stroke="none"
            />
        </g
        >
        <g stroke-linecap="butt" font-size="11px" fill-opacity="1" fill="black" text-rendering="geometricPrecision"
           image-rendering="optimizeQuality" font-family="sans-serif" stroke-linejoin="round" stroke="black"
           stroke-opacity="1" stroke-miterlimit="0"
        >
            <rect fill="none" x="0" width="8" height="12" y="0" clip-path="url(#clipPath1)"
            />
        </g
        >
        <g font-size="11px" transform="translate(107,75)" fill-opacity="1" fill="black"
           text-rendering="geometricPrecision" image-rendering="optimizeQuality" font-family="sans-serif" stroke="black"
           stroke-opacity="1"
        >
            <text x="10" xml:space="preserve" y="12" clip-path="url(#clipPath7)" stroke="none"
      >Receptionist</text
    >
        </g
        >
        <g font-size="11px" transform="translate(906,40)" fill-opacity="1" fill="black"
           text-rendering="geometricPrecision" image-rendering="optimizeQuality" font-family="sans-serif" stroke="black"
           stroke-opacity="1"
        >
            <text x="13" xml:space="preserve" y="12" clip-path="url(#clipPath8)" stroke="none"
      >: System</text
    >
        </g
        >
        <g stroke-linecap="butt" font-size="11px" transform="translate(101,66)" fill-opacity="1" fill="black"
           text-rendering="geometricPrecision" image-rendering="optimizeQuality" font-family="sans-serif"
           stroke-linejoin="round" stroke="black" stroke-opacity="1"
        >
            <line y2="50" fill="none" x1="50" clip-path="url(#clipPath10)" x2="836" y1="50"
            />
            <polygon points=" 836 50 824 44 824 56" clip-path="url(#clipPath10)" stroke="none"
            />
            <polygon fill="none" points=" 836 50 824 44 824 56" clip-path="url(#clipPath10)"
            />
        </g
        >
        <g fill-opacity="1" text-rendering="geometricPrecision" stroke="black" stroke-linecap="butt"
           transform="translate(101,97)" stroke-miterlimit="0" stroke-opacity="1" fill="black" stroke-dasharray="8,3"
           font-family="sans-serif" stroke-linejoin="round" font-size="11px" image-rendering="optimizeQuality"
        >
            <line y2="50" fill="none" x1="836" clip-path="url(#clipPath11)" x2="50" y1="50"
            />
            <line clip-path="url(#clipPath11)" fill="none" x1="50" x2="62" y1="50" y2="56" stroke-dasharray="none"
                  stroke-miterlimit="10"
            />
            <line clip-path="url(#clipPath11)" fill="none" x1="50" x2="62" y1="50" y2="44" stroke-dasharray="none"
                  stroke-miterlimit="10"
            />
        </g
        >
        <g stroke-linecap="butt" font-size="11px" transform="translate(101,128)" fill-opacity="1" fill="black"
           text-rendering="geometricPrecision" image-rendering="optimizeQuality" font-family="sans-serif"
           stroke-linejoin="round" stroke="black" stroke-opacity="1"
        >
            <line y2="50" fill="none" x1="50" clip-path="url(#clipPath12)" x2="836" y1="50"
            />
            <polygon points=" 836 50 824 44 824 56" clip-path="url(#clipPath12)" stroke="none"
            />
            <polygon fill="none" points=" 836 50 824 44 824 56" clip-path="url(#clipPath12)"
            />
        </g
        >
        <g fill-opacity="1" text-rendering="geometricPrecision" stroke="black" stroke-linecap="butt"
           transform="translate(101,166)" stroke-miterlimit="0" stroke-opacity="1" fill="black" stroke-dasharray="8,3"
           font-family="sans-serif" stroke-linejoin="round" font-size="11px" image-rendering="optimizeQuality"
        >
            <line y2="50" fill="none" x1="836" clip-path="url(#clipPath13)" x2="50" y1="50"
            />
            <line clip-path="url(#clipPath13)" fill="none" x1="50" x2="62" y1="50" y2="56" stroke-dasharray="none"
                  stroke-miterlimit="10"
            />
            <line clip-path="url(#clipPath13)" fill="none" x1="50" x2="62" y1="50" y2="44" stroke-dasharray="none"
                  stroke-miterlimit="10"
            />
        </g
        >
        <g stroke-linecap="butt" font-size="11px" transform="translate(101,197)" fill-opacity="1" fill="black"
           text-rendering="geometricPrecision" image-rendering="optimizeQuality" font-family="sans-serif"
           stroke-linejoin="round" stroke="black" stroke-opacity="1"
        >
            <line y2="50" fill="none" x1="50" clip-path="url(#clipPath14)" x2="836" y1="50"
            />
            <polygon points=" 836 50 824 44 824 56" clip-path="url(#clipPath14)" stroke="none"
            />
            <polygon fill="none" points=" 836 50 824 44 824 56" clip-path="url(#clipPath14)"
            />
        </g
        >
        <g fill-opacity="1" text-rendering="geometricPrecision" stroke="black" stroke-linecap="butt"
           transform="translate(101,230)" stroke-miterlimit="0" stroke-opacity="1" fill="black" stroke-dasharray="8,3"
           font-family="sans-serif" stroke-linejoin="round" font-size="11px" image-rendering="optimizeQuality"
        >
            <line y2="50" fill="none" x1="836" clip-path="url(#clipPath15)" x2="50" y1="50"
            />
            <line clip-path="url(#clipPath15)" fill="none" x1="50" x2="62" y1="50" y2="56" stroke-dasharray="none"
                  stroke-miterlimit="10"
            />
            <line clip-path="url(#clipPath15)" fill="none" x1="50" x2="62" y1="50" y2="44" stroke-dasharray="none"
                  stroke-miterlimit="10"
            />
        </g
        >
        <g font-size="11px" transform="translate(448,258)" fill-opacity="1" fill="white"
           text-rendering="geometricPrecision" image-rendering="optimizeQuality" font-family="sans-serif" stroke="white"
           stroke-opacity="1"
        >
            <rect x="0" width="170" height="15" y="0" clip-path="url(#clipPath16)" stroke="none"
            />
            <text fill="black" x="9" xml:space="preserve" y="12" clip-path="url(#clipPath16)" stroke="none"
            >3.1: informs operation success</text
            >
        </g
        >
        <g font-size="11px" transform="translate(459,225)" fill-opacity="1" fill="white"
           text-rendering="geometricPrecision" image-rendering="optimizeQuality" font-family="sans-serif" stroke="white"
           stroke-opacity="1"
        >
            <rect x="0" width="156" height="15" y="0" clip-path="url(#clipPath17)" stroke="none"
            />
            <text fill="black" x="10" xml:space="preserve" y="12" clip-path="url(#clipPath17)" stroke="none"
            >3: confirms the desired data</text
            >
        </g
        >
        <g font-size="11px" transform="translate(423,196)" fill-opacity="1" fill="white"
           text-rendering="geometricPrecision" image-rendering="optimizeQuality" font-family="sans-serif" stroke="white"
           stroke-opacity="1"
        >
            <rect x="0" width="227" height="15" y="0" clip-path="url(#clipPath18)" stroke="none"
            />
            <text fill="black" x="10" xml:space="preserve" y="12" clip-path="url(#clipPath18)" stroke="none"
            >2.1: shows data and requests confirmation</text
            >
        </g
        >
        <g font-size="11px" transform="translate(474,158)" fill-opacity="1" fill="white"
           text-rendering="geometricPrecision" image-rendering="optimizeQuality" font-family="sans-serif" stroke="white"
           stroke-opacity="1"
        >
            <rect x="0" width="135" height="15" y="0" clip-path="url(#clipPath19)" stroke="none"
            />
            <text fill="black" x="10" xml:space="preserve" y="12" clip-path="url(#clipPath19)" stroke="none"
            >2: types requested data</text
            >
        </g
        >
        <g font-size="11px" transform="translate(277,124)" fill-opacity="1" fill="white"
           text-rendering="geometricPrecision" image-rendering="optimizeQuality" font-family="sans-serif" stroke="white"
           stroke-opacity="1"
        >
            <rect x="0" width="522" height="15" y="0" clip-path="url(#clipPath20)" stroke="none"
            />
            <text fill="black" x="10" xml:space="preserve" y="12" clip-path="url(#clipPath20)" stroke="none"
            >1.1: request data (i.e. ccNumber, snsNumber, name, birthdDate, sex, phoneNumber, email, tinNumber)</text
            >
        </g
        >
        <g font-size="11px" transform="translate(423,96)" fill-opacity="1" fill="white"
           text-rendering="geometricPrecision" image-rendering="optimizeQuality" font-family="sans-serif" stroke="white"
           stroke-opacity="1"
        >
            <rect x="0" width="239" height="15" y="0" clip-path="url(#clipPath21)" stroke="none"
            />
            <text fill="black" x="10" xml:space="preserve" y="12" clip-path="url(#clipPath21)" stroke="none"
            >1: 1: starts the SNS user registration process</text
            >
        </g
        >
        <g font-size="8px" fill-opacity="1" fill="rgb(120,120,120)" text-rendering="geometricPrecision"
           image-rendering="optimizeQuality" stroke="rgb(120,120,120)" stroke-opacity="1"
        >
            <text x="0" xml:space="preserve" y="10" stroke="none"
      >Visual Paradigm Standard(Miguel Dias(Instituto Superior de Engenharia do Porto))</text
    >
        </g
        >
    </g
    >
</svg
>
