<?xml version="1.0" encoding="UTF-8"?>
<!DOCTYPE svg PUBLIC '-//W3C//DTD SVG 1.0//EN'
        'http://www.w3.org/TR/2001/REC-SVG-20010904/DTD/svg10.dtd'>
<svg fill-opacity="0" xmlns:xlink="http://www.w3.org/1999/xlink" color-rendering="auto" color-interpolation="auto"
     text-rendering="auto" stroke="rgb(0,0,0)" stroke-linecap="square" width="895" stroke-miterlimit="10"
     shape-rendering="auto" stroke-opacity="0" fill="rgb(0,0,0)" stroke-dasharray="none" font-weight="normal"
     stroke-width="1" height="750" xmlns="http://www.w3.org/2000/svg" font-family="'Dialog'" font-style="normal"
     stroke-linejoin="miter" font-size="12px" stroke-dashoffset="0" image-rendering="auto"
><!--Generated by the Batik Graphics2D SVG Generator-->
    <defs id="genericDefs"
    />
    <g
    >
        <defs id="defs1"
        >
            <clipPath clipPathUnits="userSpaceOnUse" id="clipPath1"
            >
                <path d="M-7 -7 L71 -7 L71 755 L-7 755 L-7 -7 Z"
                />
            </clipPath
            >
            <clipPath clipPathUnits="userSpaceOnUse" id="clipPath2"
            >
                <path d="M-7 -7 L81 -7 L81 755 L-7 755 L-7 -7 Z"
                />
            </clipPath
            >
            <clipPath clipPathUnits="userSpaceOnUse" id="clipPath3"
            >
                <path d="M-7 -7 L19 -7 L19 126 L-7 126 L-7 -7 Z"
                />
            </clipPath
            >
            <clipPath clipPathUnits="userSpaceOnUse" id="clipPath4"
            >
                <path d="M-7 -7 L19 -7 L19 123 L-7 123 L-7 -7 Z"
                />
            </clipPath
            >
            <clipPath clipPathUnits="userSpaceOnUse" id="clipPath5"
            >
                <path d="M-7 -7 L19 -7 L19 135 L-7 135 L-7 -7 Z"
                />
            </clipPath
            >
            <clipPath clipPathUnits="userSpaceOnUse" id="clipPath6"
            >
                <path d="M-7 -7 L19 -7 L19 113 L-7 113 L-7 -7 Z"
                />
            </clipPath
            >
            <clipPath clipPathUnits="userSpaceOnUse" id="clipPath7"
            >
                <path d="M-70 -15 L140 -15 L140 30 L-70 30 L-70 -15 Z"
                />
            </clipPath
            >
            <clipPath clipPathUnits="userSpaceOnUse" id="clipPath8"
            >
                <path d="M-85 -15 L170 -15 L170 30 L-85 30 L-85 -15 Z"
                />
            </clipPath
            >
            <clipPath clipPathUnits="userSpaceOnUse" id="clipPath9"
            >
                <path d="M0 0 L908 0 L908 104 L0 104 L0 0 Z"
                />
            </clipPath
            >
            <clipPath clipPathUnits="userSpaceOnUse" id="clipPath10"
            >
                <path d="M568 30 L568 45 L335 45 L335 30 ZM0 0 L0 104 L908 104 L908 0 Z"
                />
            </clipPath
            >
            <clipPath clipPathUnits="userSpaceOnUse" id="clipPath11"
            >
                <path d="M570 30 L570 45 L333 45 L333 30 ZM0 0 L0 104 L908 104 L908 0 Z"
                />
            </clipPath
            >
            <clipPath clipPathUnits="userSpaceOnUse" id="clipPath12"
            >
                <path d="M529 30 L529 45 L375 45 L375 30 ZM0 0 L0 104 L908 104 L908 0 Z"
                />
            </clipPath
            >
            <clipPath clipPathUnits="userSpaceOnUse" id="clipPath13"
            >
                <path d="M789 29 L789 44 L111 44 L111 29 ZM0 0 L0 104 L908 104 L908 0 Z"
                />
            </clipPath
            >
            <clipPath clipPathUnits="userSpaceOnUse" id="clipPath14"
            >
                <path d="M519 30 L519 45 L384 45 L384 30 ZM0 0 L0 104 L908 104 L908 0 Z"
                />
            </clipPath
            >
            <clipPath clipPathUnits="userSpaceOnUse" id="clipPath15"
            >
                <path d="M579 30 L579 45 L324 45 L324 30 ZM0 0 L0 104 L908 104 L908 0 Z"
                />
            </clipPath
            >
            <clipPath clipPathUnits="userSpaceOnUse" id="clipPath16"
            >
                <path d="M510 30 L510 45 L393 45 L393 30 ZM0 0 L0 104 L908 104 L908 0 Z"
                />
            </clipPath
            >
            <clipPath clipPathUnits="userSpaceOnUse" id="clipPath17"
            >
                <path d="M571 30 L571 45 L332 45 L332 30 ZM0 0 L0 104 L908 104 L908 0 Z"
                />
            </clipPath
            >
            <clipPath clipPathUnits="userSpaceOnUse" id="clipPath18"
            >
                <path d="M-239 -15 L478 -15 L478 30 L-239 30 L-239 -15 Z"
                />
            </clipPath
            >
            <clipPath clipPathUnits="userSpaceOnUse" id="clipPath19"
            >
                <path d="M-117 -15 L234 -15 L234 30 L-117 30 L-117 -15 Z"
                />
            </clipPath
            >
            <clipPath clipPathUnits="userSpaceOnUse" id="clipPath20"
            >
                <path d="M-255 -15 L510 -15 L510 30 L-255 30 L-255 -15 Z"
                />
            </clipPath
            >
            <clipPath clipPathUnits="userSpaceOnUse" id="clipPath21"
            >
                <path d="M-135 -15 L270 -15 L270 30 L-135 30 L-135 -15 Z"
                />
            </clipPath
            >
            <clipPath clipPathUnits="userSpaceOnUse" id="clipPath22"
            >
                <path d="M-678 -15 L1356 -15 L1356 30 L-678 30 L-678 -15 Z"
                />
            </clipPath
            >
            <clipPath clipPathUnits="userSpaceOnUse" id="clipPath23"
            >
                <path d="M-154 -15 L308 -15 L308 30 L-154 30 L-154 -15 Z"
                />
            </clipPath
            >
            <clipPath clipPathUnits="userSpaceOnUse" id="clipPath24"
            >
                <path d="M-237 -15 L474 -15 L474 30 L-237 30 L-237 -15 Z"
                />
            </clipPath
            >
            <clipPath clipPathUnits="userSpaceOnUse" id="clipPath25"
            >
                <path d="M-233 -15 L466 -15 L466 30 L-233 30 L-233 -15 Z"
                />
            </clipPath
            >
        </defs
        >
        <g fill="white" text-rendering="geometricPrecision" fill-opacity="1" stroke-opacity="1" stroke="white"
        >
            <rect x="0" width="895" height="750" y="0" stroke="none"
            />
        </g
        >
        <g font-size="11px" transform="translate(14,2)" fill-opacity="1" fill="rgb(122,207,245)"
           text-rendering="geometricPrecision" image-rendering="optimizeQuality" font-family="sans-serif"
           stroke="rgb(122,207,245)" stroke-opacity="1"
        >
            <circle r="5" clip-path="url(#clipPath1)" cx="30" cy="5" stroke="none"
            />
            <rect x="26" width="8" height="693" y="50" clip-path="url(#clipPath1)" stroke="none"
            />
        </g
        >
        <g stroke-linecap="butt" font-size="11px" transform="translate(14,2)" fill-opacity="1" fill="black"
           text-rendering="geometricPrecision" image-rendering="optimizeQuality" font-family="sans-serif"
           stroke-linejoin="round" stroke="black" stroke-opacity="1" stroke-miterlimit="0"
        >
            <circle fill="none" r="5" clip-path="url(#clipPath1)" cx="30" cy="5"
            />
            <rect fill="none" x="26" width="8" height="693" y="50" clip-path="url(#clipPath1)"
            />
            <line y2="25" fill="none" x1="30" clip-path="url(#clipPath1)" x2="30" y1="10"
            />
            <line y2="36" fill="none" x1="30" clip-path="url(#clipPath1)" x2="21" y1="25"
            />
            <line y2="36" fill="none" x1="30" clip-path="url(#clipPath1)" x2="39" y1="25"
            />
            <line y2="16" fill="none" x1="21" clip-path="url(#clipPath1)" x2="39" y1="16"
            />
        </g
        >
        <g font-size="11px" transform="translate(821,2)" fill-opacity="1" fill="rgb(122,207,245)"
           text-rendering="geometricPrecision" image-rendering="optimizeQuality" font-family="sans-serif"
           stroke="rgb(122,207,245)" stroke-opacity="1"
        >
            <rect x="0" width="69" height="35" y="0" clip-path="url(#clipPath2)" stroke="none"
            />
        </g
        >
        <g stroke-linecap="butt" font-size="11px" transform="translate(821,2)" fill-opacity="1" fill="black"
           text-rendering="geometricPrecision" image-rendering="optimizeQuality" font-family="sans-serif"
           stroke-linejoin="round" stroke="black" stroke-opacity="1" stroke-miterlimit="0"
        >
            <rect fill="none" x="0" width="69" height="35" y="0" clip-path="url(#clipPath2)"
            />
            <line clip-path="url(#clipPath2)" fill="none" x1="34" x2="34" y1="35" y2="744" stroke-linejoin="bevel"
                  stroke-dasharray="8,3"
            />
        </g
        >
        <g font-size="11px" transform="translate(852,94)" fill-opacity="1" fill="rgb(122,207,245)"
           text-rendering="geometricPrecision" image-rendering="optimizeQuality" font-family="sans-serif"
           stroke="rgb(122,207,245)" stroke-opacity="1"
        >
            <rect x="0" width="8" height="115" y="0" clip-path="url(#clipPath3)" stroke="none"
            />
        </g
        >
        <g stroke-linecap="butt" font-size="11px" transform="translate(852,94)" fill-opacity="1" fill="black"
           text-rendering="geometricPrecision" image-rendering="optimizeQuality" font-family="sans-serif"
           stroke-linejoin="round" stroke="black" stroke-opacity="1" stroke-miterlimit="0"
        >
            <rect fill="none" x="0" width="8" height="115" y="0" clip-path="url(#clipPath3)"
            />
        </g
        >
        <g font-size="11px" transform="translate(852,265)" fill-opacity="1" fill="rgb(122,207,245)"
           text-rendering="geometricPrecision" image-rendering="optimizeQuality" font-family="sans-serif"
           stroke="rgb(122,207,245)" stroke-opacity="1"
        >
            <rect x="0" width="8" height="112" y="0" clip-path="url(#clipPath4)" stroke="none"
            />
        </g
        >
        <g stroke-linecap="butt" font-size="11px" transform="translate(852,265)" fill-opacity="1" fill="black"
           text-rendering="geometricPrecision" image-rendering="optimizeQuality" font-family="sans-serif"
           stroke-linejoin="round" stroke="black" stroke-opacity="1" stroke-miterlimit="0"
        >
            <rect fill="none" x="0" width="8" height="112" y="0" clip-path="url(#clipPath4)"
            />
        </g
        >
        <g font-size="11px" transform="translate(852,436)" fill-opacity="1" fill="rgb(122,207,245)"
           text-rendering="geometricPrecision" image-rendering="optimizeQuality" font-family="sans-serif"
           stroke="rgb(122,207,245)" stroke-opacity="1"
        >
            <rect x="0" width="8" height="124" y="0" clip-path="url(#clipPath5)" stroke="none"
            />
        </g
        >
        <g stroke-linecap="butt" font-size="11px" transform="translate(852,436)" fill-opacity="1" fill="black"
           text-rendering="geometricPrecision" image-rendering="optimizeQuality" font-family="sans-serif"
           stroke-linejoin="round" stroke="black" stroke-opacity="1" stroke-miterlimit="0"
        >
            <rect fill="none" x="0" width="8" height="124" y="0" clip-path="url(#clipPath5)"
            />
        </g
        >
        <g font-size="11px" transform="translate(852,620)" fill-opacity="1" fill="rgb(122,207,245)"
           text-rendering="geometricPrecision" image-rendering="optimizeQuality" font-family="sans-serif"
           stroke="rgb(122,207,245)" stroke-opacity="1"
        >
            <rect x="0" width="8" height="102" y="0" clip-path="url(#clipPath6)" stroke="none"
            />
        </g
        >
        <g stroke-linecap="butt" font-size="11px" transform="translate(852,620)" fill-opacity="1" fill="black"
           text-rendering="geometricPrecision" image-rendering="optimizeQuality" font-family="sans-serif"
           stroke-linejoin="round" stroke="black" stroke-opacity="1" stroke-miterlimit="0"
        >
            <rect fill="none" x="0" width="8" height="102" y="0" clip-path="url(#clipPath6)"
            />
        </g
        >
        <g font-size="11px" transform="translate(821,2)" fill-opacity="1" fill="black"
           text-rendering="geometricPrecision" image-rendering="optimizeQuality" font-family="sans-serif" stroke="black"
           stroke-opacity="1"
        >
            <text x="13" xml:space="preserve" y="12" clip-path="url(#clipPath7)" stroke="none"
      >: System</text
    >
        </g
        >
        <g font-size="11px" transform="translate(2,37)" fill-opacity="1" fill="black"
           text-rendering="geometricPrecision" image-rendering="optimizeQuality" font-family="sans-serif" stroke="black"
           stroke-opacity="1"
        >
            <text x="10" xml:space="preserve" y="12" clip-path="url(#clipPath8)" stroke="none"
      >Administrator</text
    >
        </g
        >
        <g stroke-linecap="butt" font-size="11px" transform="translate(-2,59)" fill-opacity="1" fill="black"
           text-rendering="geometricPrecision" image-rendering="optimizeQuality" font-family="sans-serif"
           stroke-linejoin="round" stroke="black" stroke-opacity="1"
        >
            <line y2="50" fill="none" x1="50" clip-path="url(#clipPath10)" x2="854" y1="50"
            />
            <polygon points=" 854 50 842 44 842 56" clip-path="url(#clipPath10)" stroke="none"
            />
            <polygon fill="none" points=" 854 50 842 44 842 56" clip-path="url(#clipPath10)"
            />
        </g
        >
        <g fill-opacity="1" text-rendering="geometricPrecision" stroke="black" stroke-linecap="butt"
           transform="translate(-2,144)" stroke-miterlimit="0" stroke-opacity="1" fill="black" stroke-dasharray="8,3"
           font-family="sans-serif" stroke-linejoin="round" font-size="11px" image-rendering="optimizeQuality"
        >
            <line y2="50" fill="none" x1="854" clip-path="url(#clipPath11)" x2="50" y1="50"
            />
            <line clip-path="url(#clipPath11)" fill="none" x1="50" x2="62" y1="50" y2="56" stroke-dasharray="none"
                  stroke-miterlimit="10"
            />
            <line clip-path="url(#clipPath11)" fill="none" x1="50" x2="62" y1="50" y2="44" stroke-dasharray="none"
                  stroke-miterlimit="10"
            />
        </g
        >
        <g stroke-linecap="butt" font-size="11px" transform="translate(-2,223)" fill-opacity="1" fill="black"
           text-rendering="geometricPrecision" image-rendering="optimizeQuality" font-family="sans-serif"
           stroke-linejoin="round" stroke="black" stroke-opacity="1"
        >
            <line y2="50" fill="none" x1="50" clip-path="url(#clipPath12)" x2="854" y1="50"
            />
            <polygon points=" 854 50 842 44 842 56" clip-path="url(#clipPath12)" stroke="none"
            />
            <polygon fill="none" points=" 854 50 842 44 842 56" clip-path="url(#clipPath12)"
            />
        </g
        >
        <g fill-opacity="1" text-rendering="geometricPrecision" stroke="black" stroke-linecap="butt"
           transform="translate(-2,313)" stroke-miterlimit="0" stroke-opacity="1" fill="black" stroke-dasharray="8,3"
           font-family="sans-serif" stroke-linejoin="round" font-size="11px" image-rendering="optimizeQuality"
        >
            <line y2="50" fill="none" x1="854" clip-path="url(#clipPath13)" x2="50" y1="50"
            />
            <line clip-path="url(#clipPath13)" fill="none" x1="50" x2="62" y1="50" y2="56" stroke-dasharray="none"
                  stroke-miterlimit="10"
            />
            <line clip-path="url(#clipPath13)" fill="none" x1="50" x2="62" y1="50" y2="44" stroke-dasharray="none"
                  stroke-miterlimit="10"
            />
        </g
        >
        <g stroke-linecap="butt" font-size="11px" transform="translate(-2,402)" fill-opacity="1" fill="black"
           text-rendering="geometricPrecision" image-rendering="optimizeQuality" font-family="sans-serif"
           stroke-linejoin="round" stroke="black" stroke-opacity="1"
        >
            <line y2="50" fill="none" x1="50" clip-path="url(#clipPath14)" x2="854" y1="50"
            />
            <polygon points=" 854 50 842 44 842 56" clip-path="url(#clipPath14)" stroke="none"
            />
            <polygon fill="none" points=" 854 50 842 44 842 56" clip-path="url(#clipPath14)"
            />
        </g
        >
        <g fill-opacity="1" text-rendering="geometricPrecision" stroke="black" stroke-linecap="butt"
           transform="translate(-2,498)" stroke-miterlimit="0" stroke-opacity="1" fill="black" stroke-dasharray="8,3"
           font-family="sans-serif" stroke-linejoin="round" font-size="11px" image-rendering="optimizeQuality"
        >
            <line y2="50" fill="none" x1="854" clip-path="url(#clipPath15)" x2="50" y1="50"
            />
            <line clip-path="url(#clipPath15)" fill="none" x1="50" x2="62" y1="50" y2="56" stroke-dasharray="none"
                  stroke-miterlimit="10"
            />
            <line clip-path="url(#clipPath15)" fill="none" x1="50" x2="62" y1="50" y2="44" stroke-dasharray="none"
                  stroke-miterlimit="10"
            />
        </g
        >
        <g stroke-linecap="butt" font-size="11px" transform="translate(-2,584)" fill-opacity="1" fill="black"
           text-rendering="geometricPrecision" image-rendering="optimizeQuality" font-family="sans-serif"
           stroke-linejoin="round" stroke="black" stroke-opacity="1"
        >
            <line y2="50" fill="none" x1="50" clip-path="url(#clipPath16)" x2="854" y1="50"
            />
            <polygon points=" 854 50 842 44 842 56" clip-path="url(#clipPath16)" stroke="none"
            />
            <polygon fill="none" points=" 854 50 842 44 842 56" clip-path="url(#clipPath16)"
            />
        </g
        >
        <g fill-opacity="1" text-rendering="geometricPrecision" stroke="black" stroke-linecap="butt"
           transform="translate(-2,660)" stroke-miterlimit="0" stroke-opacity="1" fill="black" stroke-dasharray="8,3"
           font-family="sans-serif" stroke-linejoin="round" font-size="11px" image-rendering="optimizeQuality"
        >
            <line y2="50" fill="none" x1="854" clip-path="url(#clipPath17)" x2="50" y1="50"
            />
            <line clip-path="url(#clipPath17)" fill="none" x1="50" x2="62" y1="50" y2="56" stroke-dasharray="none"
                  stroke-miterlimit="10"
            />
            <line clip-path="url(#clipPath17)" fill="none" x1="50" x2="62" y1="50" y2="44" stroke-dasharray="none"
                  stroke-miterlimit="10"
            />
        </g
        >
        <g font-size="11px" transform="translate(330,690)" fill-opacity="1" fill="white"
           text-rendering="geometricPrecision" image-rendering="optimizeQuality" font-family="sans-serif" stroke="white"
           stroke-opacity="1"
        >
            <rect x="0" width="239" height="15" y="0" clip-path="url(#clipPath18)" stroke="none"
            />
            <text fill="black" x="10" xml:space="preserve" y="12" clip-path="url(#clipPath18)" stroke="none"
            >4.1: informs the operation success/insuccess</text
            >
        </g
        >
        <g font-size="11px" transform="translate(391,614)" fill-opacity="1" fill="white"
           text-rendering="geometricPrecision" image-rendering="optimizeQuality" font-family="sans-serif" stroke="white"
           stroke-opacity="1"
        >
            <rect x="0" width="117" height="15" y="0" clip-path="url(#clipPath19)" stroke="none"
            />
            <text fill="black" x="10" xml:space="preserve" y="12" clip-path="url(#clipPath19)" stroke="none"
            >4: confirms the data</text
            >
        </g
        >
        <g font-size="11px" transform="translate(322,528)" fill-opacity="1" fill="white"
           text-rendering="geometricPrecision" image-rendering="optimizeQuality" font-family="sans-serif" stroke="white"
           stroke-opacity="1"
        >
            <rect x="0" width="255" height="15" y="0" clip-path="url(#clipPath20)" stroke="none"
            />
            <text fill="black" x="9" xml:space="preserve" y="12" clip-path="url(#clipPath20)" stroke="none"
            >3.1: shows the data and requests a confirmation</text
            >
        </g
        >
        <g font-size="11px" transform="translate(382,432)" fill-opacity="1" fill="white"
           text-rendering="geometricPrecision" image-rendering="optimizeQuality" font-family="sans-serif" stroke="white"
           stroke-opacity="1"
        >
            <rect x="0" width="135" height="15" y="0" clip-path="url(#clipPath21)" stroke="none"
            />
            <text fill="black" x="10" xml:space="preserve" y="12" clip-path="url(#clipPath21)" stroke="none"
            >3: types requested data</text
            >
        </g
        >
        <g font-size="11px" transform="translate(109,342)" fill-opacity="1" fill="white"
           text-rendering="geometricPrecision" image-rendering="optimizeQuality" font-family="sans-serif" stroke="white"
           stroke-opacity="1"
        >
            <rect x="0" width="678" height="15" y="0" clip-path="url(#clipPath22)" stroke="none"
            />
            <text fill="black" x="9" xml:space="preserve" y="12" clip-path="url(#clipPath22)" stroke="none"
            >2.1: request data (i.e., name, address, phoneNumber, email, faxNumber, website, slotDuration, maxVaccinest, openingList, closingList)</text
            >
        </g
        >
        <g font-size="11px" transform="translate(373,253)" fill-opacity="1" fill="white"
           text-rendering="geometricPrecision" image-rendering="optimizeQuality" font-family="sans-serif" stroke="white"
           stroke-opacity="1"
        >
            <rect x="0" width="154" height="15" y="0" clip-path="url(#clipPath23)" stroke="none"
            />
            <text fill="black" x="10" xml:space="preserve" y="12" clip-path="url(#clipPath23)" stroke="none"
            >2: selects the intended type</text
            >
        </g
        >
        <g font-size="11px" transform="translate(331,174)" fill-opacity="1" fill="white"
           text-rendering="geometricPrecision" image-rendering="optimizeQuality" font-family="sans-serif" stroke="white"
           stroke-opacity="1"
        >
            <rect x="0" width="237" height="15" y="0" clip-path="url(#clipPath24)" stroke="none"
            />
            <text fill="black" x="9" xml:space="preserve" y="12" clip-path="url(#clipPath24)" stroke="none"
            >1.1: ask to select the vaccination center type</text
            >
        </g
        >
        <g font-size="11px" transform="translate(333,89)" fill-opacity="1" fill="white"
           text-rendering="geometricPrecision" image-rendering="optimizeQuality" font-family="sans-serif" stroke="white"
           stroke-opacity="1"
        >
            <rect x="0" width="233" height="15" y="0" clip-path="url(#clipPath25)" stroke="none"
            />
            <text fill="black" x="9" xml:space="preserve" y="12" clip-path="url(#clipPath25)" stroke="none"
            >1: start registering a new vaccination center</text
            >
        </g
        >
        <g font-size="8px" fill-opacity="1" fill="rgb(120,120,120)" text-rendering="geometricPrecision"
           image-rendering="optimizeQuality" stroke="rgb(120,120,120)" stroke-opacity="1"
        >
            <text x="0" xml:space="preserve" y="10" stroke="none"
      >Visual Paradigm Standard(joao tavares(Instituto Superior de Engenharia do Porto))</text
    >
        </g
        >
    </g
    >
</svg
>
