<?xml version="1.0" encoding="UTF-8"?>
<!DOCTYPE svg PUBLIC '-//W3C//DTD SVG 1.0//EN'
        'http://www.w3.org/TR/2001/REC-SVG-20010904/DTD/svg10.dtd'>
<svg fill-opacity="0" xmlns:xlink="http://www.w3.org/1999/xlink" color-rendering="auto" color-interpolation="auto"
     text-rendering="auto" stroke="rgb(0,0,0)" stroke-linecap="square" width="590" stroke-miterlimit="10"
     shape-rendering="auto" stroke-opacity="0" fill="rgb(0,0,0)" stroke-dasharray="none" font-weight="normal"
     stroke-width="1" height="290" xmlns="http://www.w3.org/2000/svg" font-family="'Dialog'" font-style="normal"
     stroke-linejoin="miter" font-size="12px" stroke-dashoffset="0" image-rendering="auto"
><!--Generated by the Batik Graphics2D SVG Generator-->
    <defs id="genericDefs"
    />
    <g
    >
        <defs id="defs1"
        >
            <clipPath clipPathUnits="userSpaceOnUse" id="clipPath1"
            >
                <path d="M-7 -7 L71 -7 L71 295 L-7 295 L-7 -7 Z"
                />
            </clipPath
            >
            <clipPath clipPathUnits="userSpaceOnUse" id="clipPath2"
            >
                <path d="M-7 -7 L81 -7 L81 295 L-7 295 L-7 -7 Z"
                />
            </clipPath
            >
            <clipPath clipPathUnits="userSpaceOnUse" id="clipPath3"
            >
                <path d="M-7 -7 L19 -7 L19 58 L-7 58 L-7 -7 Z"
                />
            </clipPath
            >
            <clipPath clipPathUnits="userSpaceOnUse" id="clipPath4"
            >
                <path d="M-7 -7 L19 -7 L19 81 L-7 81 L-7 -7 Z"
                />
            </clipPath
            >
            <clipPath clipPathUnits="userSpaceOnUse" id="clipPath5"
            >
                <path d="M-69 -15 L138 -15 L138 30 L-69 30 L-69 -15 Z"
                />
            </clipPath
            >
            <clipPath clipPathUnits="userSpaceOnUse" id="clipPath6"
            >
                <path d="M-70 -15 L140 -15 L140 30 L-70 30 L-70 -15 Z"
                />
            </clipPath
            >
            <clipPath clipPathUnits="userSpaceOnUse" id="clipPath7"
            >
                <path d="M0 0 L504 0 L504 104 L0 104 L0 0 Z"
                />
            </clipPath
            >
            <clipPath clipPathUnits="userSpaceOnUse" id="clipPath8"
            >
                <path d="M81 6 L81 21 L12 21 L12 6 ZM313 30 L313 45 L187 45 L187 30 ZM451 70 L451 85 L47 85 L47 70 ZM0 0 L0 104 L504 104 L504 0 Z"
                />
            </clipPath
            >
            <clipPath clipPathUnits="userSpaceOnUse" id="clipPath9"
            >
                <path d="M451 30 L451 45 L47 45 L47 30 ZM294 81 L294 96 L205 96 L205 81 ZM0 0 L0 104 L495 104 L495 83 L504 83 L504 0 L313 0 L313 5 L187 5 L187 0 Z"
                />
            </clipPath
            >
            <clipPath clipPathUnits="userSpaceOnUse" id="clipPath10"
            >
                <path d="M294 30 L294 45 L205 45 L205 30 ZM326 88 L326 103 L174 103 L174 88 ZM0 0 L0 104 L495 104 L495 32 L504 32 L504 0 Z"
                />
            </clipPath
            >
            <clipPath clipPathUnits="userSpaceOnUse" id="clipPath11"
            >
                <path d="M0 0 L134 0 L134 124 L0 124 L0 0 Z"
                />
            </clipPath
            >
            <clipPath clipPathUnits="userSpaceOnUse" id="clipPath12"
            >
                <path d="M0 0 L0 124 L134 124 L134 114 L87 114 L87 12 L134 12 L134 0 Z"
                />
            </clipPath
            >
            <clipPath clipPathUnits="userSpaceOnUse" id="clipPath13"
            >
                <path d="M326 30 L326 45 L174 45 L174 30 ZM0 0 L0 104 L504 104 L504 76 L495 76 L495 0 Z"
                />
            </clipPath
            >
            <clipPath clipPathUnits="userSpaceOnUse" id="clipPath14"
            >
                <path d="M-152 -15 L304 -15 L304 30 L-152 30 L-152 -15 Z"
                />
            </clipPath
            >
            <clipPath clipPathUnits="userSpaceOnUse" id="clipPath15"
            >
                <path d="M-101 -102 L202 -102 L202 204 L-101 204 L-101 -102 Z"
                />
            </clipPath
            >
            <clipPath clipPathUnits="userSpaceOnUse" id="clipPath16"
            >
                <path d="M-89 -15 L178 -15 L178 30 L-89 30 L-89 -15 Z"
                />
            </clipPath
            >
            <clipPath clipPathUnits="userSpaceOnUse" id="clipPath17"
            >
                <path d="M-404 -15 L808 -15 L808 30 L-404 30 L-404 -15 Z"
                />
            </clipPath
            >
            <clipPath clipPathUnits="userSpaceOnUse" id="clipPath18"
            >
                <path d="M-126 -15 L252 -15 L252 30 L-126 30 L-126 -15 Z"
                />
            </clipPath
            >
        </defs
        >
        <g fill="white" text-rendering="geometricPrecision" fill-opacity="1" stroke-opacity="1" stroke="white"
        >
            <rect x="0" width="590" height="290" y="0" stroke="none"
            />
        </g
        >
        <g font-size="11px" transform="translate(6,2)" fill-opacity="1" fill="rgb(122,207,245)"
           text-rendering="geometricPrecision" image-rendering="optimizeQuality" font-family="sans-serif"
           stroke="rgb(122,207,245)" stroke-opacity="1"
        >
            <circle r="5" clip-path="url(#clipPath1)" cx="30" cy="5" stroke="none"
            />
            <rect x="26" width="8" height="233" y="50" clip-path="url(#clipPath1)" stroke="none"
            />
        </g
        >
        <g stroke-linecap="butt" font-size="11px" transform="translate(6,2)" fill-opacity="1" fill="black"
           text-rendering="geometricPrecision" image-rendering="optimizeQuality" font-family="sans-serif"
           stroke-linejoin="round" stroke="black" stroke-opacity="1" stroke-miterlimit="0"
        >
            <circle fill="none" r="5" clip-path="url(#clipPath1)" cx="30" cy="5"
            />
            <rect fill="none" x="26" width="8" height="233" y="50" clip-path="url(#clipPath1)"
            />
            <line y2="25" fill="none" x1="30" clip-path="url(#clipPath1)" x2="30" y1="10"
            />
            <line y2="36" fill="none" x1="30" clip-path="url(#clipPath1)" x2="21" y1="25"
            />
            <line y2="36" fill="none" x1="30" clip-path="url(#clipPath1)" x2="39" y1="25"
            />
            <line y2="16" fill="none" x1="21" clip-path="url(#clipPath1)" x2="39" y1="16"
            />
        </g
        >
        <g font-size="11px" transform="translate(409,2)" fill-opacity="1" fill="rgb(122,207,245)"
           text-rendering="geometricPrecision" image-rendering="optimizeQuality" font-family="sans-serif"
           stroke="rgb(122,207,245)" stroke-opacity="1"
        >
            <rect x="0" width="69" height="35" y="0" clip-path="url(#clipPath2)" stroke="none"
            />
        </g
        >
        <g stroke-linecap="butt" font-size="11px" transform="translate(409,2)" fill-opacity="1" fill="black"
           text-rendering="geometricPrecision" image-rendering="optimizeQuality" font-family="sans-serif"
           stroke-linejoin="round" stroke="black" stroke-opacity="1" stroke-miterlimit="0"
        >
            <rect fill="none" x="0" width="69" height="35" y="0" clip-path="url(#clipPath2)"
            />
            <line clip-path="url(#clipPath2)" fill="none" x1="34" x2="34" y1="35" y2="284" stroke-linejoin="bevel"
                  stroke-dasharray="8,3"
            />
        </g
        >
        <g font-size="11px" transform="translate(440,81)" fill-opacity="1" fill="rgb(122,207,245)"
           text-rendering="geometricPrecision" image-rendering="optimizeQuality" font-family="sans-serif"
           stroke="rgb(122,207,245)" stroke-opacity="1"
        >
            <rect x="0" width="8" height="47" y="0" clip-path="url(#clipPath3)" stroke="none"
            />
        </g
        >
        <g stroke-linecap="butt" font-size="11px" transform="translate(440,81)" fill-opacity="1" fill="black"
           text-rendering="geometricPrecision" image-rendering="optimizeQuality" font-family="sans-serif"
           stroke-linejoin="round" stroke="black" stroke-opacity="1" stroke-miterlimit="0"
        >
            <rect fill="none" x="0" width="8" height="47" y="0" clip-path="url(#clipPath3)"
            />
        </g
        >
        <g font-size="11px" transform="translate(440,172)" fill-opacity="1" fill="rgb(122,207,245)"
           text-rendering="geometricPrecision" image-rendering="optimizeQuality" font-family="sans-serif"
           stroke="rgb(122,207,245)" stroke-opacity="1"
        >
            <rect x="0" width="8" height="70" y="0" clip-path="url(#clipPath4)" stroke="none"
            />
        </g
        >
        <g stroke-linecap="butt" font-size="11px" transform="translate(440,172)" fill-opacity="1" fill="black"
           text-rendering="geometricPrecision" image-rendering="optimizeQuality" font-family="sans-serif"
           stroke-linejoin="round" stroke="black" stroke-opacity="1" stroke-miterlimit="0"
        >
            <rect fill="none" x="0" width="8" height="70" y="0" clip-path="url(#clipPath4)"
            />
        </g
        >
        <g font-size="11px" transform="translate(2,37)" fill-opacity="1" fill="black"
           text-rendering="geometricPrecision" image-rendering="optimizeQuality" font-family="sans-serif" stroke="black"
           stroke-opacity="1"
        >
            <text x="10" xml:space="preserve" y="12" clip-path="url(#clipPath5)" stroke="none"
      >SNS User</text
    >
        </g
        >
        <g font-size="11px" transform="translate(409,2)" fill-opacity="1" fill="black"
           text-rendering="geometricPrecision" image-rendering="optimizeQuality" font-family="sans-serif" stroke="black"
           stroke-opacity="1"
        >
            <text x="16" xml:space="preserve" y="12" clip-path="url(#clipPath6)" stroke="none"
      >System</text
    >
        </g
        >
        <g stroke-linecap="butt" font-size="11px" transform="translate(-10,31)" fill-opacity="1" fill="black"
           text-rendering="geometricPrecision" image-rendering="optimizeQuality" font-family="sans-serif"
           stroke-linejoin="round" stroke="black" stroke-opacity="1"
        >
            <line y2="50" fill="none" x1="50" clip-path="url(#clipPath8)" x2="450" y1="50"
            />
            <polygon points=" 450 50 438 44 438 56" clip-path="url(#clipPath8)" stroke="none"
            />
            <polygon fill="none" points=" 450 50 438 44 438 56" clip-path="url(#clipPath8)"
            />
        </g
        >
        <g fill-opacity="1" text-rendering="geometricPrecision" stroke="black" stroke-linecap="butt"
           transform="translate(-10,71)" stroke-miterlimit="0" stroke-opacity="1" fill="black" stroke-dasharray="8,3"
           font-family="sans-serif" stroke-linejoin="round" font-size="11px" image-rendering="optimizeQuality"
        >
            <line y2="50" fill="none" x1="450" clip-path="url(#clipPath9)" x2="50" y1="50"
            />
            <line clip-path="url(#clipPath9)" fill="none" x1="50" x2="62" y1="50" y2="56" stroke-dasharray="none"
                  stroke-miterlimit="10"
            />
            <line clip-path="url(#clipPath9)" fill="none" x1="50" x2="62" y1="50" y2="44" stroke-dasharray="none"
                  stroke-miterlimit="10"
            />
        </g
        >
        <g stroke-linecap="butt" font-size="11px" transform="translate(-10,122)" fill-opacity="1" fill="black"
           text-rendering="geometricPrecision" image-rendering="optimizeQuality" font-family="sans-serif"
           stroke-linejoin="round" stroke="black" stroke-opacity="1"
        >
            <line y2="50" fill="none" x1="50" clip-path="url(#clipPath10)" x2="450" y1="50"
            />
            <polygon points=" 450 50 438 44 438 56" clip-path="url(#clipPath10)" stroke="none"
            />
            <polygon fill="none" points=" 450 50 438 44 438 56" clip-path="url(#clipPath10)"
            />
        </g
        >
        <g stroke-linecap="butt" font-size="11px" transform="translate(398,142)" fill-opacity="1" fill="black"
           text-rendering="geometricPrecision" image-rendering="optimizeQuality" font-family="sans-serif"
           stroke-linejoin="round" stroke="black" stroke-opacity="1"
        >
            <line y2="50" fill="none" x1="50" clip-path="url(#clipPath12)" x2="80" y1="50"
            />
            <line y2="70" fill="none" x1="80" clip-path="url(#clipPath12)" x2="80" y1="50"
            />
            <line y2="70" fill="none" x1="80" clip-path="url(#clipPath12)" x2="50" y1="70"
            />
            <polygon points=" 50 70 62 76 62 64" clip-path="url(#clipPath12)" stroke="none"
            />
            <polygon fill="none" points=" 50 70 62 76 62 64" clip-path="url(#clipPath12)"
            />
        </g
        >
        <g fill-opacity="1" text-rendering="geometricPrecision" stroke="black" stroke-linecap="butt"
           transform="translate(-10,180)" stroke-miterlimit="0" stroke-opacity="1" fill="black" stroke-dasharray="8,3"
           font-family="sans-serif" stroke-linejoin="round" font-size="11px" image-rendering="optimizeQuality"
        >
            <line y2="50" fill="none" x1="450" clip-path="url(#clipPath13)" x2="50" y1="50"
            />
            <line clip-path="url(#clipPath13)" fill="none" x1="50" x2="62" y1="50" y2="56" stroke-dasharray="none"
                  stroke-miterlimit="10"
            />
            <line clip-path="url(#clipPath13)" fill="none" x1="50" x2="62" y1="50" y2="44" stroke-dasharray="none"
                  stroke-miterlimit="10"
            />
        </g
        >
        <g font-size="11px" transform="translate(164,210)" fill-opacity="1" fill="white"
           text-rendering="geometricPrecision" image-rendering="optimizeQuality" font-family="sans-serif" stroke="white"
           stroke-opacity="1"
        >
            <rect x="0" width="152" height="15" y="0" clip-path="url(#clipPath14)" stroke="none"
            />
            <text fill="black" x="9" xml:space="preserve" y="12" clip-path="url(#clipPath14)" stroke="none"
            >2.2: Confirmation Message</text
            >
        </g
        >
        <g font-size="11px" transform="translate(485,154)" fill-opacity="1" fill="white"
           text-rendering="geometricPrecision" image-rendering="optimizeQuality" font-family="sans-serif" stroke="white"
           stroke-opacity="1"
        >
            <rect x="0" width="101" height="102" y="0" clip-path="url(#clipPath15)" stroke="none"
            />
            <text fill="black" x="20" xml:space="preserve" y="18" clip-path="url(#clipPath15)" stroke="none"
            >2.1: Checks</text
            >
            <text fill="black" x="5" xml:space="preserve" y="33" clip-path="url(#clipPath15)" stroke="none"
            >VaccinationCenter</text
            >
            <text fill="black" x="16" xml:space="preserve" y="48" clip-path="url(#clipPath15)" stroke="none"
            >availability on</text
            >
            <text fill="black" x="13" xml:space="preserve" y="63" clip-path="url(#clipPath15)" stroke="none"
            >given Date and</text
            >
            <text fill="black" x="17" xml:space="preserve" y="78" clip-path="url(#clipPath15)" stroke="none"
            >Time, verifies</text
            >
            <text fill="black" x="18" xml:space="preserve" y="93" clip-path="url(#clipPath15)" stroke="none"
            >VaccineType</text
            >
        </g
        >
        <g font-size="11px" transform="translate(195,152)" fill-opacity="1" fill="white"
           text-rendering="geometricPrecision" image-rendering="optimizeQuality" font-family="sans-serif" stroke="white"
           stroke-opacity="1"
        >
            <rect x="0" width="89" height="15" y="0" clip-path="url(#clipPath16)" stroke="none"
            />
            <text fill="black" x="9" xml:space="preserve" y="12" clip-path="url(#clipPath16)" stroke="none"
            >2: Inputs Data</text
            >
        </g
        >
        <g font-size="11px" transform="translate(37,101)" fill-opacity="1" fill="white"
           text-rendering="geometricPrecision" image-rendering="optimizeQuality" font-family="sans-serif" stroke="white"
           stroke-opacity="1"
        >
            <rect x="0" width="404" height="15" y="0" clip-path="url(#clipPath17)" stroke="none"
            />
            <text fill="black" x="10" xml:space="preserve" y="12" clip-path="url(#clipPath17)" stroke="none"
            >1.1: Requests Data(SNSnumber, VaccinationCenter, VaccineType,Date, Time)</text
            >
        </g
        >
        <g font-size="11px" transform="translate(177,61)" fill-opacity="1" fill="white"
           text-rendering="geometricPrecision" image-rendering="optimizeQuality" font-family="sans-serif" stroke="white"
           stroke-opacity="1"
        >
            <rect x="0" width="126" height="15" y="0" clip-path="url(#clipPath18)" stroke="none"
            />
            <text fill="black" x="10" xml:space="preserve" y="12" clip-path="url(#clipPath18)" stroke="none"
            >1: Schedules Vaccine</text
            >
        </g
        >
        <g font-size="8px" fill-opacity="1" fill="rgb(120,120,120)" text-rendering="geometricPrecision"
           image-rendering="optimizeQuality" stroke="rgb(120,120,120)" stroke-opacity="1"
        >
            <text x="0" xml:space="preserve" y="10" stroke="none"
      >Visual Paradigm Standard(goncaloamaral(Instituto Superior de Engenharia do Porto))</text
    >
        </g
        >
    </g
    >
</svg
>
