<?xml version="1.0" encoding="UTF-8"?>
<!DOCTYPE svg PUBLIC '-//W3C//DTD SVG 1.0//EN'
        'http://www.w3.org/TR/2001/REC-SVG-20010904/DTD/svg10.dtd'>
<svg fill-opacity="0" xmlns:xlink="http://www.w3.org/1999/xlink" color-rendering="auto" color-interpolation="auto"
     text-rendering="auto" stroke="rgb(0,0,0)" stroke-linecap="square" width="1011" stroke-miterlimit="10"
     shape-rendering="auto" stroke-opacity="0" fill="rgb(0,0,0)" stroke-dasharray="none" font-weight="normal"
     stroke-width="1" height="249" xmlns="http://www.w3.org/2000/svg" font-family="'Dialog'" font-style="normal"
     stroke-linejoin="miter" font-size="12px" stroke-dashoffset="0" image-rendering="auto"
><!--Generated by the Batik Graphics2D SVG Generator-->
    <defs id="genericDefs"
    />
    <g
    >
        <defs id="defs1"
        >
            <clipPath clipPathUnits="userSpaceOnUse" id="clipPath1"
            >
                <path d="M-7 -7 L209 -7 L209 51 L-7 51 L-7 -7 Z"
                />
            </clipPath
            >
            <clipPath clipPathUnits="userSpaceOnUse" id="clipPath2"
            >
                <path d="M0 0 L0 25 L198 25 L198 0 Z"
                />
            </clipPath
            >
            <clipPath clipPathUnits="userSpaceOnUse" id="clipPath3"
            >
                <path d="M0 0 L0 15 L198 15 L198 0 Z"
                />
            </clipPath
            >
            <clipPath clipPathUnits="userSpaceOnUse" id="clipPath4"
            >
                <path d="M-7 -7 L196 -7 L196 51 L-7 51 L-7 -7 Z"
                />
            </clipPath
            >
            <clipPath clipPathUnits="userSpaceOnUse" id="clipPath5"
            >
                <path d="M-0 0 L-0 25 L185 25 L185 0 Z"
                />
            </clipPath
            >
            <clipPath clipPathUnits="userSpaceOnUse" id="clipPath6"
            >
                <path d="M-0 0 L-0 15 L185 15 L185 0 Z"
                />
            </clipPath
            >
            <clipPath clipPathUnits="userSpaceOnUse" id="clipPath7"
            >
                <path d="M-7 -7 L190 -7 L190 160 L-7 160 L-7 -7 Z"
                />
            </clipPath
            >
            <clipPath clipPathUnits="userSpaceOnUse" id="clipPath8"
            >
                <path d="M0 0 L0 134 L179 134 L179 0 Z"
                />
            </clipPath
            >
            <clipPath clipPathUnits="userSpaceOnUse" id="clipPath9"
            >
                <path d="M0 0 L0 15 L178 15 L178 0 Z"
                />
            </clipPath
            >
            <clipPath clipPathUnits="userSpaceOnUse" id="clipPath10"
            >
                <path d="M-7 -7 L106 -7 L106 78 L-7 78 L-7 -7 Z"
                />
            </clipPath
            >
            <clipPath clipPathUnits="userSpaceOnUse" id="clipPath11"
            >
                <path d="M0 0 L0 52 L95 52 L95 0 Z"
                />
            </clipPath
            >
            <clipPath clipPathUnits="userSpaceOnUse" id="clipPath12"
            >
                <path d="M0 0 L0 15 L95 15 L95 0 Z"
                />
            </clipPath
            >
            <clipPath clipPathUnits="userSpaceOnUse" id="clipPath13"
            >
                <path d="M-7 -7 L171 -7 L171 51 L-7 51 L-7 -7 Z"
                />
            </clipPath
            >
            <clipPath clipPathUnits="userSpaceOnUse" id="clipPath14"
            >
                <path d="M-0 0 L-0 25 L160 25 L160 0 Z"
                />
            </clipPath
            >
            <clipPath clipPathUnits="userSpaceOnUse" id="clipPath15"
            >
                <path d="M-0 0 L-0 15 L160 15 L160 0 Z"
                />
            </clipPath
            >
            <clipPath clipPathUnits="userSpaceOnUse" id="clipPath16"
            >
                <path d="M-7 -7 L169 -7 L169 51 L-7 51 L-7 -7 Z"
                />
            </clipPath
            >
            <clipPath clipPathUnits="userSpaceOnUse" id="clipPath17"
            >
                <path d="M-0 0 L-0 25 L158 25 L158 0 Z"
                />
            </clipPath
            >
            <clipPath clipPathUnits="userSpaceOnUse" id="clipPath18"
            >
                <path d="M-0 0 L-0 15 L158 15 L158 0 Z"
                />
            </clipPath
            >
            <clipPath clipPathUnits="userSpaceOnUse" id="clipPath19"
            >
                <path d="M-7 -7 L39 -7 L39 26 L-7 26 L-7 -7 Z"
                />
            </clipPath
            >
            <clipPath clipPathUnits="userSpaceOnUse" id="clipPath20"
            >
                <path d="M-0 0 L-0 15 L27 15 L27 0 Z"
                />
            </clipPath
            >
            <clipPath clipPathUnits="userSpaceOnUse" id="clipPath21"
            >
                <path d="M-7 -7 L38 -7 L38 25 L-7 25 L-7 -7 Z"
                />
            </clipPath
            >
            <clipPath clipPathUnits="userSpaceOnUse" id="clipPath22"
            >
                <path d="M-7 -7 L37 -7 L37 26 L-7 26 L-7 -7 Z"
                />
            </clipPath
            >
            <clipPath clipPathUnits="userSpaceOnUse" id="clipPath23"
            >
                <path d="M0 0 L0 15 L25 15 L25 0 Z"
                />
            </clipPath
            >
            <clipPath clipPathUnits="userSpaceOnUse" id="clipPath24"
            >
                <path d="M-7 -7 L38 -7 L38 26 L-7 26 L-7 -7 Z"
                />
            </clipPath
            >
            <clipPath clipPathUnits="userSpaceOnUse" id="clipPath25"
            >
                <path d="M0 0 L0 15 L27 15 L27 0 Z"
                />
            </clipPath
            >
            <clipPath clipPathUnits="userSpaceOnUse" id="clipPath26"
            >
                <path d="M-0 0 L-0 15 L25 15 L25 0 Z"
                />
            </clipPath
            >
            <clipPath clipPathUnits="userSpaceOnUse" id="clipPath27"
            >
                <path d="M-7 -7 L36 -7 L36 26 L-7 26 L-7 -7 Z"
                />
            </clipPath
            >
            <clipPath clipPathUnits="userSpaceOnUse" id="clipPath28"
            >
                <path d="M-0 0 L209 0 L209 95 L-0 95 L-0 0 Z"
                />
            </clipPath
            >
            <clipPath clipPathUnits="userSpaceOnUse" id="clipPath29"
            >
                <path d="M135 28 L135 45 L70 45 L70 28 ZM-0 0 L-0 95 L209 95 L209 0 Z"
                />
            </clipPath
            >
            <clipPath clipPathUnits="userSpaceOnUse" id="clipPath30"
            >
                <path d="M-0 0 L210 0 L210 95 L-0 95 L-0 0 Z"
                />
            </clipPath
            >
            <clipPath clipPathUnits="userSpaceOnUse" id="clipPath31"
            >
                <path d="M144 26 L144 42 L65 42 L65 26 ZM-0 0 L-0 95 L210 95 L210 0 Z"
                />
            </clipPath
            >
            <clipPath clipPathUnits="userSpaceOnUse" id="clipPath32"
            >
                <path d="M0 0 L210 0 L210 95 L0 95 L0 0 Z"
                />
            </clipPath
            >
            <clipPath clipPathUnits="userSpaceOnUse" id="clipPath33"
            >
                <path d="M151 28 L151 44 L68 44 L68 28 ZM0 0 L0 95 L210 95 L210 0 Z"
                />
            </clipPath
            >
            <clipPath clipPathUnits="userSpaceOnUse" id="clipPath34"
            >
                <path d="M-0 0 L121 0 L121 203 L-0 203 L-0 0 Z"
                />
            </clipPath
            >
            <clipPath clipPathUnits="userSpaceOnUse" id="clipPath35"
            >
                <path d="M-0 0 L-0 86 L19 86 L19 82 L78 82 L78 99 L19 99 L19 102 L-0 102 L-0 203 L121 203 L121 0 Z"
                />
            </clipPath
            >
            <clipPath clipPathUnits="userSpaceOnUse" id="clipPath36"
            >
                <path d="M-0 0 L115 0 L115 205 L-0 205 L-0 0 Z"
                />
            </clipPath
            >
            <clipPath clipPathUnits="userSpaceOnUse" id="clipPath37"
            >
                <path d="M-0 0 L-0 205 L115 205 L115 101 L92 101 L92 104 L33 104 L33 88 L92 88 L92 84 L115 84 L115 0 Z"
                />
            </clipPath
            >
            <clipPath clipPathUnits="userSpaceOnUse" id="clipPath38"
            >
                <path d="M-59 -16 L118 -16 L118 32 L-59 32 L-59 -16 Z"
                />
            </clipPath
            >
            <clipPath clipPathUnits="userSpaceOnUse" id="clipPath39"
            >
                <path d="M-69 -16 L108 -16 L108 32 L-69 32 L-69 -16 Z"
                />
            </clipPath
            >
            <clipPath clipPathUnits="userSpaceOnUse" id="clipPath40"
            >
                <path d="M-59 -17 L118 -17 L118 34 L-59 34 L-59 -17 Z"
                />
            </clipPath
            >
            <clipPath clipPathUnits="userSpaceOnUse" id="clipPath41"
            >
                <path d="M-69 -17 L108 -17 L108 34 L-69 34 L-69 -17 Z"
                />
            </clipPath
            >
            <clipPath clipPathUnits="userSpaceOnUse" id="clipPath42"
            >
                <path d="M-83 -16 L166 -16 L166 32 L-83 32 L-83 -16 Z"
                />
            </clipPath
            >
            <clipPath clipPathUnits="userSpaceOnUse" id="clipPath43"
            >
                <path d="M-93 -16 L156 -16 L156 32 L-93 32 L-93 -16 Z"
                />
            </clipPath
            >
            <clipPath clipPathUnits="userSpaceOnUse" id="clipPath44"
            >
                <path d="M-79 -16 L158 -16 L158 32 L-79 32 L-79 -16 Z"
                />
            </clipPath
            >
            <clipPath clipPathUnits="userSpaceOnUse" id="clipPath45"
            >
                <path d="M-89 -16 L148 -16 L148 32 L-89 32 L-89 -16 Z"
                />
            </clipPath
            >
            <clipPath clipPathUnits="userSpaceOnUse" id="clipPath46"
            >
                <path d="M-65 -17 L130 -17 L130 34 L-65 34 L-65 -17 Z"
                />
            </clipPath
            >
            <clipPath clipPathUnits="userSpaceOnUse" id="clipPath47"
            >
                <path d="M-75 -17 L120 -17 L120 34 L-75 34 L-75 -17 Z"
                />
            </clipPath
            >
        </defs
        >
        <g fill="white" text-rendering="geometricPrecision" fill-opacity="1" stroke-opacity="1" stroke="white"
        >
            <rect x="0" width="1011" height="249" y="0" stroke="none"
            />
        </g
        >
        <g font-size="11px" transform="translate(1.9091,150.7273)" fill-opacity="1" fill="rgb(122,207,245)"
           text-rendering="geometricPrecision" image-rendering="optimizeQuality" font-family="sans-serif"
           stroke="rgb(122,207,245)" font-weight="bold" stroke-opacity="1"
        >
            <rect x="0" width="198" height="40" y="0" clip-path="url(#clipPath1)" stroke="none"
            />
        </g
        >
        <g fill-opacity="1" text-rendering="geometricPrecision" stroke="black" stroke-linecap="butt"
           transform="translate(1.9091,150.7273)" stroke-miterlimit="0" stroke-opacity="1" fill="black"
           font-weight="bold" font-family="sans-serif" stroke-linejoin="round" font-size="11px"
           image-rendering="optimizeQuality"
        >
            <rect fill="none" x="0" width="198" height="40" y="0" clip-path="url(#clipPath1)"
            />
            <line y2="15" fill="none" x1="0" clip-path="url(#clipPath1)" x2="198" y1="15"
            />
        </g
        >
        <g font-size="11px" transform="translate(1.9091,150.7273)" fill-opacity="1" fill="black"
           text-rendering="geometricPrecision" image-rendering="optimizeQuality" font-family="sans-serif" stroke="black"
           font-weight="bold" stroke-opacity="1"
        >
            <text x="62" xml:space="preserve" y="12" clip-path="url(#clipPath3)" stroke="none"
      >Administrator</text
    >
        </g
        >
        <g font-size="11px" transform="translate(316.9091,150.7273)" fill-opacity="1" fill="rgb(122,207,245)"
           text-rendering="geometricPrecision" image-rendering="optimizeQuality" font-family="sans-serif"
           stroke="rgb(122,207,245)" font-weight="bold" stroke-opacity="1"
        >
            <rect x="0" width="185" height="40" y="0" clip-path="url(#clipPath4)" stroke="none"
            />
        </g
        >
        <g fill-opacity="1" text-rendering="geometricPrecision" stroke="black" stroke-linecap="butt"
           transform="translate(316.9091,150.7273)" stroke-miterlimit="0" stroke-opacity="1" fill="black"
           font-weight="bold" font-family="sans-serif" stroke-linejoin="round" font-size="11px"
           image-rendering="optimizeQuality"
        >
            <rect fill="none" x="0" width="185" height="40" y="0" clip-path="url(#clipPath4)"
            />
            <line y2="15" fill="none" x1="0" clip-path="url(#clipPath4)" x2="185" y1="15"
            />
        </g
        >
        <g font-size="11px" transform="translate(316.9091,150.7273)" fill-opacity="1" fill="black"
           text-rendering="geometricPrecision" image-rendering="optimizeQuality" font-family="sans-serif" stroke="black"
           font-weight="bold" stroke-opacity="1"
        >
            <text x="70" xml:space="preserve" y="12" clip-path="url(#clipPath6)" stroke="none"
      >CSV File</text
    >
        </g
        >
        <g font-size="11px" transform="translate(617.9091,96.7273)" fill-opacity="1" fill="rgb(122,207,245)"
           text-rendering="geometricPrecision" image-rendering="optimizeQuality" font-family="sans-serif"
           stroke="rgb(122,207,245)" font-weight="bold" stroke-opacity="1"
        >
            <rect x="0" width="179" height="149" y="0" clip-path="url(#clipPath7)" stroke="none"
            />
        </g
        >
        <g fill-opacity="1" text-rendering="geometricPrecision" stroke="black" stroke-linecap="butt"
           transform="translate(617.9091,96.7273)" stroke-miterlimit="0" stroke-opacity="1" fill="black"
           font-weight="bold" font-family="sans-serif" stroke-linejoin="round" font-size="11px"
           image-rendering="optimizeQuality"
        >
            <rect fill="none" x="0" width="179" height="149" y="0" clip-path="url(#clipPath7)"
            />
            <line y2="15" fill="none" x1="0" clip-path="url(#clipPath7)" x2="179" y1="15"
            />
        </g
        >
        <g font-size="11px" transform="matrix(1,0,0,1,617.9091,111.7273)" fill-opacity="1" fill="black"
           text-rendering="geometricPrecision" image-rendering="optimizeQuality" font-family="sans-serif" stroke="black"
           stroke-opacity="1"
        >
            <text x="2" xml:space="preserve" y="14" clip-path="url(#clipPath8)" stroke="none"
      >-name : string</text
    >
        </g
        >
        <g font-size="11px" transform="matrix(1,0,0,1,617.9091,111.7273)" fill-opacity="1" fill="black"
           text-rendering="geometricPrecision" image-rendering="optimizeQuality" font-family="sans-serif" stroke="black"
           stroke-opacity="1"
        >
            <text x="2" xml:space="preserve" y="29" clip-path="url(#clipPath8)" stroke="none"
      >-citizenCardNumber : int</text
    >
        </g
        >
        <g font-size="11px" transform="matrix(1,0,0,1,617.9091,111.7273)" fill-opacity="1" fill="black"
           text-rendering="geometricPrecision" image-rendering="optimizeQuality" font-family="sans-serif" stroke="black"
           stroke-opacity="1"
        >
            <text x="2" xml:space="preserve" y="44" clip-path="url(#clipPath8)" stroke="none"
      >-snsNumber : int</text
    >
        </g
        >
        <g font-size="11px" transform="matrix(1,0,0,1,617.9091,111.7273)" fill-opacity="1" fill="black"
           text-rendering="geometricPrecision" image-rendering="optimizeQuality" font-family="sans-serif" stroke="black"
           stroke-opacity="1"
        >
            <text x="2" xml:space="preserve" y="59" clip-path="url(#clipPath8)" stroke="none"
      >-birthDate : Date</text
    >
        </g
        >
        <g font-size="11px" transform="matrix(1,0,0,1,617.9091,111.7273)" fill-opacity="1" fill="black"
           text-rendering="geometricPrecision" image-rendering="optimizeQuality" font-family="sans-serif" stroke="black"
           stroke-opacity="1"
        >
            <text x="2" xml:space="preserve" y="74" clip-path="url(#clipPath8)" stroke="none"
      >-sex : string</text
    >
        </g
        >
        <g font-size="11px" transform="matrix(1,0,0,1,617.9091,111.7273)" fill-opacity="1" fill="black"
           text-rendering="geometricPrecision" image-rendering="optimizeQuality" font-family="sans-serif" stroke="black"
           stroke-opacity="1"
        >
            <text x="2" xml:space="preserve" y="89" clip-path="url(#clipPath8)" stroke="none"
      >-phoneNumber : int</text
    >
        </g
        >
        <g font-size="11px" transform="matrix(1,0,0,1,617.9091,111.7273)" fill-opacity="1" fill="black"
           text-rendering="geometricPrecision" image-rendering="optimizeQuality" font-family="sans-serif" stroke="black"
           stroke-opacity="1"
        >
            <text x="2" xml:space="preserve" y="104" clip-path="url(#clipPath8)" stroke="none"
      >-emailAddress : string</text
    >
        </g
        >
        <g font-size="11px" transform="translate(617.9091,96.7273)" fill-opacity="1" fill="black"
           text-rendering="geometricPrecision" image-rendering="optimizeQuality" font-family="sans-serif" stroke="black"
           font-weight="bold" stroke-opacity="1"
        >
            <text x="60" xml:space="preserve" y="12" clip-path="url(#clipPath9)" stroke="none"
      >SNS Users</text
    >
        </g
        >
        <g font-size="11px" transform="translate(912.9091,137.7273)" fill-opacity="1" fill="rgb(122,207,245)"
           text-rendering="geometricPrecision" image-rendering="optimizeQuality" font-family="sans-serif"
           stroke="rgb(122,207,245)" font-weight="bold" stroke-opacity="1"
        >
            <rect x="0" width="95" height="67" y="0" clip-path="url(#clipPath10)" stroke="none"
            />
        </g
        >
        <g fill-opacity="1" text-rendering="geometricPrecision" stroke="black" stroke-linecap="butt"
           transform="translate(912.9091,137.7273)" stroke-miterlimit="0" stroke-opacity="1" fill="black"
           font-weight="bold" font-family="sans-serif" stroke-linejoin="round" font-size="11px"
           image-rendering="optimizeQuality"
        >
            <rect fill="none" x="0" width="95" height="67" y="0" clip-path="url(#clipPath10)"
            />
            <line y2="15" fill="none" x1="0" clip-path="url(#clipPath10)" x2="95" y1="15"
            />
        </g
        >
        <g font-size="11px" transform="matrix(1,0,0,1,912.9091,152.7273)" fill-opacity="1" fill="black"
           text-rendering="geometricPrecision" image-rendering="optimizeQuality" font-family="sans-serif" stroke="black"
           stroke-opacity="1"
        >
            <text x="2" xml:space="preserve" y="14" clip-path="url(#clipPath11)" stroke="none"
      >-name : string</text
    >
        </g
        >
        <g font-size="11px" transform="matrix(1,0,0,1,912.9091,152.7273)" fill-opacity="1" fill="black"
           text-rendering="geometricPrecision" image-rendering="optimizeQuality" font-family="sans-serif" stroke="black"
           stroke-opacity="1"
        >
            <text x="2" xml:space="preserve" y="29" clip-path="url(#clipPath11)" stroke="none"
      >-email : string</text
    >
        </g
        >
        <g font-size="11px" transform="matrix(1,0,0,1,912.9091,152.7273)" fill-opacity="1" fill="black"
           text-rendering="geometricPrecision" image-rendering="optimizeQuality" font-family="sans-serif" stroke="black"
           stroke-opacity="1"
        >
            <text x="2" xml:space="preserve" y="44" clip-path="url(#clipPath11)" stroke="none"
      >-password : string</text
    >
        </g
        >
        <g font-size="11px" transform="translate(912.9091,137.7273)" fill-opacity="1" fill="black"
           text-rendering="geometricPrecision" image-rendering="optimizeQuality" font-family="sans-serif" stroke="black"
           font-weight="bold" stroke-opacity="1"
        >
            <text x="34" xml:space="preserve" y="12" clip-path="url(#clipPath12)" stroke="none"
      >User</text
    >
        </g
        >
        <g font-size="11px" transform="translate(199.9091,1.7273)" fill-opacity="1" fill="rgb(122,207,245)"
           text-rendering="geometricPrecision" image-rendering="optimizeQuality" font-family="sans-serif"
           stroke="rgb(122,207,245)" font-weight="bold" stroke-opacity="1"
        >
            <rect x="0" width="160" height="40" y="0" clip-path="url(#clipPath13)" stroke="none"
            />
        </g
        >
        <g fill-opacity="1" text-rendering="geometricPrecision" stroke="black" stroke-linecap="butt"
           transform="translate(199.9091,1.7273)" stroke-miterlimit="0" stroke-opacity="1" fill="black"
           font-weight="bold" font-family="sans-serif" stroke-linejoin="round" font-size="11px"
           image-rendering="optimizeQuality"
        >
            <rect fill="none" x="0" width="160" height="40" y="0" clip-path="url(#clipPath13)"
            />
            <line y2="15" fill="none" x1="0" clip-path="url(#clipPath13)" x2="160" y1="15"
            />
        </g
        >
        <g font-size="11px" transform="translate(199.9091,1.7273)" fill-opacity="1" fill="black"
           text-rendering="geometricPrecision" image-rendering="optimizeQuality" font-family="sans-serif" stroke="black"
           font-weight="bold" stroke-opacity="1"
        >
            <text x="4" xml:space="preserve" y="12" clip-path="url(#clipPath15)" stroke="none"
      >Without Header And Comma</text
    >
        </g
        >
        <g font-size="11px" transform="translate(459.9091,1.7273)" fill-opacity="1" fill="rgb(122,207,245)"
           text-rendering="geometricPrecision" image-rendering="optimizeQuality" font-family="sans-serif"
           stroke="rgb(122,207,245)" font-weight="bold" stroke-opacity="1"
        >
            <rect x="0" width="158" height="40" y="0" clip-path="url(#clipPath16)" stroke="none"
            />
        </g
        >
        <g fill-opacity="1" text-rendering="geometricPrecision" stroke="black" stroke-linecap="butt"
           transform="translate(459.9091,1.7273)" stroke-miterlimit="0" stroke-opacity="1" fill="black"
           font-weight="bold" font-family="sans-serif" stroke-linejoin="round" font-size="11px"
           image-rendering="optimizeQuality"
        >
            <rect fill="none" x="0" width="158" height="40" y="0" clip-path="url(#clipPath16)"
            />
            <line y2="15" fill="none" x1="0" clip-path="url(#clipPath16)" x2="158" y1="15"
            />
        </g
        >
        <g font-size="11px" transform="translate(459.9091,1.7273)" fill-opacity="1" fill="black"
           text-rendering="geometricPrecision" image-rendering="optimizeQuality" font-family="sans-serif" stroke="black"
           font-weight="bold" stroke-opacity="1"
        >
            <text x="4" xml:space="preserve" y="12" clip-path="url(#clipPath18)" stroke="none"
      >With Header And Semicolon</text
    >
        </g
        >
        <g font-size="11px" transform="translate(198.9091,153.7273)" fill-opacity="1" fill="black"
           text-rendering="geometricPrecision" image-rendering="optimizeQuality" font-family="sans-serif" stroke="black"
           stroke-opacity="1"
        >
            <text x="10" xml:space="preserve" y="12" clip-path="url(#clipPath20)" stroke="none"
      >1</text
    >
        </g
        >
        <g font-size="11px" transform="translate(287.9091,172.7273)" fill-opacity="1" fill="black"
           text-rendering="geometricPrecision" image-rendering="optimizeQuality" font-family="sans-serif" stroke="black"
           stroke-opacity="1"
        >
            <text x="10" xml:space="preserve" y="12" clip-path="url(#clipPath20)" stroke="none"
      >1</text
    >
        </g
        >
        <g font-size="11px" transform="translate(500.9091,148.7273)" fill-opacity="1" fill="black"
           text-rendering="geometricPrecision" image-rendering="optimizeQuality" font-family="sans-serif" stroke="black"
           stroke-opacity="1"
        >
            <text x="10" xml:space="preserve" y="12" clip-path="url(#clipPath20)" stroke="none"
      >1</text
    >
        </g
        >
        <g font-size="11px" transform="translate(591.9091,171.7273)" fill-opacity="1" fill="black"
           text-rendering="geometricPrecision" image-rendering="optimizeQuality" font-family="sans-serif" stroke="black"
           stroke-opacity="1"
        >
            <text x="10" xml:space="preserve" y="12" clip-path="url(#clipPath23)" stroke="none"
      >*</text
    >
        </g
        >
        <g font-size="11px" transform="translate(796.9091,151.7273)" fill-opacity="1" fill="black"
           text-rendering="geometricPrecision" image-rendering="optimizeQuality" font-family="sans-serif" stroke="black"
           stroke-opacity="1"
        >
            <text x="10" xml:space="preserve" y="12" clip-path="url(#clipPath25)" stroke="none"
      >1</text
    >
        </g
        >
        <g font-size="11px" transform="translate(884.9091,168.7273)" fill-opacity="1" fill="black"
           text-rendering="geometricPrecision" image-rendering="optimizeQuality" font-family="sans-serif" stroke="black"
           stroke-opacity="1"
        >
            <text x="10" xml:space="preserve" y="12" clip-path="url(#clipPath25)" stroke="none"
      >1</text
    >
        </g
        >
        <g font-size="11px" transform="translate(430.9091,133.7273)" fill-opacity="1" fill="black"
           text-rendering="geometricPrecision" image-rendering="optimizeQuality" font-family="sans-serif" stroke="black"
           stroke-opacity="1"
        >
            <text x="10" xml:space="preserve" y="12" clip-path="url(#clipPath26)" stroke="none"
      >*</text
    >
        </g
        >
        <g font-size="11px" transform="translate(460.9091,42.7273)" fill-opacity="1" fill="black"
           text-rendering="geometricPrecision" image-rendering="optimizeQuality" font-family="sans-serif" stroke="black"
           stroke-opacity="1"
        >
            <text x="10" xml:space="preserve" y="12" clip-path="url(#clipPath20)" stroke="none"
      >1</text
    >
        </g
        >
        <g font-size="11px" transform="translate(354.9091,133.7273)" fill-opacity="1" fill="black"
           text-rendering="geometricPrecision" image-rendering="optimizeQuality" font-family="sans-serif" stroke="black"
           stroke-opacity="1"
        >
            <text x="10" xml:space="preserve" y="12" clip-path="url(#clipPath26)" stroke="none"
      >*</text
    >
        </g
        >
        <g font-size="11px" transform="translate(363.9091,40.7273)" fill-opacity="1" fill="black"
           text-rendering="geometricPrecision" image-rendering="optimizeQuality" font-family="sans-serif" stroke="black"
           stroke-opacity="1"
        >
            <text x="10" xml:space="preserve" y="12" clip-path="url(#clipPath20)" stroke="none"
      >1</text
    >
        </g
        >
        <g stroke-linecap="butt" font-size="11px" transform="translate(155.9091,124.7273)" fill-opacity="1" fill="black"
           text-rendering="geometricPrecision" image-rendering="optimizeQuality" font-family="sans-serif"
           stroke-linejoin="round" stroke="black" stroke-opacity="1"
        >
            <line y2="45" fill="none" x1="45" clip-path="url(#clipPath29)" x2="160" y1="45"
            />
        </g
        >
        <g stroke-linecap="butt" font-size="11px" transform="translate(457.9091,121.7273)" fill-opacity="1" fill="black"
           text-rendering="geometricPrecision" image-rendering="optimizeQuality" font-family="sans-serif"
           stroke-linejoin="round" stroke="black" stroke-opacity="1"
        >
            <line y2="45" fill="none" x1="45" clip-path="url(#clipPath31)" x2="161" y1="45"
            />
        </g
        >
        <g stroke-linecap="butt" font-size="11px" transform="translate(750.9091,121.7273)" fill-opacity="1" fill="black"
           text-rendering="geometricPrecision" image-rendering="optimizeQuality" font-family="sans-serif"
           stroke-linejoin="round" stroke="black" stroke-opacity="1"
        >
            <line y2="45" fill="none" x1="45" clip-path="url(#clipPath33)" x2="161" y1="45"
            />
        </g
        >
        <g stroke-linecap="butt" font-size="11px" transform="translate(387.9091,-2.2727)" fill-opacity="1" fill="black"
           text-rendering="geometricPrecision" image-rendering="optimizeQuality" font-family="sans-serif"
           stroke-linejoin="round" stroke="black" stroke-opacity="1"
        >
            <line y2="117" fill="none" x1="45" clip-path="url(#clipPath35)" x2="45" y1="154"
            />
            <line y2="45" fill="none" x1="45" clip-path="url(#clipPath35)" x2="72" y1="117"
            />
        </g
        >
        <g stroke-linecap="butt" font-size="11px" transform="translate(314.9091,-4.2727)" fill-opacity="1" fill="black"
           text-rendering="geometricPrecision" image-rendering="optimizeQuality" font-family="sans-serif"
           stroke-linejoin="round" stroke="black" stroke-opacity="1"
        >
            <line y2="119" fill="none" x1="65" clip-path="url(#clipPath37)" x2="65" y1="155"
            />
            <line y2="45" fill="none" x1="65" clip-path="url(#clipPath37)" x2="45" y1="119"
            />
        </g
        >
        <g font-size="11px" transform="translate(357.9091,83.7273)" fill-opacity="1" fill="black"
           text-rendering="geometricPrecision" image-rendering="optimizeQuality" font-family="sans-serif" stroke="black"
           stroke-opacity="1"
        >
            <path d="M6.2963 0.2273 L14.5289 11.4622 L4.8785 14.0833 Z" stroke="none" clip-path="url(#clipPath39)"
            />
            <text x="27" xml:space="preserve" y="12" clip-path="url(#clipPath38)" transform="translate(-10,0)"
                  stroke="none"
            >is of</text
            >
        </g
        >
        <g font-size="11px" transform="translate(416.9091,79.7273)" fill-opacity="1" fill="black"
           text-rendering="geometricPrecision" image-rendering="optimizeQuality" font-family="sans-serif" stroke="black"
           stroke-opacity="1"
        >
            <path d="M10.2399 0.3981 L10.4538 14.3249 L1.0663 10.8788 Z" stroke="none" clip-path="url(#clipPath41)"
            />
            <text x="27" xml:space="preserve" y="12" clip-path="url(#clipPath40)" transform="translate(-10,0)"
                  stroke="none"
            >is of</text
            >
        </g
        >
        <g font-size="11px" transform="translate(828.9091,149.7273)" fill-opacity="1" fill="black"
           text-rendering="geometricPrecision" image-rendering="optimizeQuality" font-family="sans-serif" stroke="black"
           stroke-opacity="1"
        >
            <path d="M14.5 6.5 L1.5 11.5 L1.5 1.5 Z" stroke="none" clip-path="url(#clipPath43)"
            />
            <text x="28" xml:space="preserve" y="12" clip-path="url(#clipPath42)" transform="translate(-10,0)"
                  stroke="none"
            >becomes</text
            >
        </g
        >
        <g font-size="11px" transform="translate(532.9091,147.7273)" fill-opacity="1" fill="black"
           text-rendering="geometricPrecision" image-rendering="optimizeQuality" font-family="sans-serif" stroke="black"
           stroke-opacity="1"
        >
            <path d="M14.5 6.5 L1.5 11.5 L1.5 1.5 Z" stroke="none" clip-path="url(#clipPath45)"
            />
            <text x="28" xml:space="preserve" y="12" clip-path="url(#clipPath44)" transform="translate(-10,0)"
                  stroke="none"
            >contains</text
            >
        </g
        >
        <g font-size="11px" transform="translate(235.9091,152.7273)" fill-opacity="1" fill="black"
           text-rendering="geometricPrecision" image-rendering="optimizeQuality" font-family="sans-serif" stroke="black"
           stroke-opacity="1"
        >
            <path d="M14.5 6.5 L1.5 11.5 L1.5 1.5 Z" stroke="none" clip-path="url(#clipPath47)"
            />
            <text x="27" xml:space="preserve" y="12" clip-path="url(#clipPath46)" transform="translate(-10,0)"
                  stroke="none"
            >loads</text
            >
        </g
        >
        <g font-size="8px" fill-opacity="1" fill="rgb(120,120,120)" text-rendering="geometricPrecision"
           image-rendering="optimizeQuality" stroke="rgb(120,120,120)" stroke-opacity="1"
        >
            <text x="0" xml:space="preserve" y="10" stroke="none"
      >Visual Paradigm Standard(José Neves(Instituto Superior de Engenharia do Porto))</text
    >
        </g
        >
    </g
    >
</svg
>
