<?xml version="1.0" encoding="UTF-8"?>
<!DOCTYPE svg PUBLIC '-//W3C//DTD SVG 1.0//EN'
        'http://www.w3.org/TR/2001/REC-SVG-20010904/DTD/svg10.dtd'>
<svg fill-opacity="0" xmlns:xlink="http://www.w3.org/1999/xlink" color-rendering="auto" color-interpolation="auto"
     text-rendering="auto" stroke="rgb(0,0,0)" stroke-linecap="square" width="3490" stroke-miterlimit="10"
     shape-rendering="auto" stroke-opacity="0" fill="rgb(0,0,0)" stroke-dasharray="none" font-weight="normal"
     stroke-width="1" height="734" xmlns="http://www.w3.org/2000/svg" font-family="'Dialog'" font-style="normal"
     stroke-linejoin="miter" font-size="12px" stroke-dashoffset="0" image-rendering="auto"
><!--Generated by the Batik Graphics2D SVG Generator-->
    <defs id="genericDefs"
    />
    <g
    >
        <defs id="defs1"
        >
            <clipPath clipPathUnits="userSpaceOnUse" id="clipPath1"
            >
                <path d="M-7 -7 L967 -7 L967 51 L-7 51 L-7 -7 Z"
                />
            </clipPath
            >
            <clipPath clipPathUnits="userSpaceOnUse" id="clipPath2"
            >
                <path d="M0 0 L0 16 L956 16 L956 0 Z"
                />
            </clipPath
            >
            <clipPath clipPathUnits="userSpaceOnUse" id="clipPath3"
            >
                <path d="M0 0 L0 24 L956 24 L956 0 Z"
                />
            </clipPath
            >
            <clipPath clipPathUnits="userSpaceOnUse" id="clipPath4"
            >
                <path d="M-7 -7 L854 -7 L854 233 L-7 233 L-7 -7 Z"
                />
            </clipPath
            >
            <clipPath clipPathUnits="userSpaceOnUse" id="clipPath5"
            >
                <path d="M0 0 L0 207 L843 207 L843 0 Z"
                />
            </clipPath
            >
            <clipPath clipPathUnits="userSpaceOnUse" id="clipPath6"
            >
                <path d="M0 0 L0 15 L843 15 L843 0 Z"
                />
            </clipPath
            >
            <clipPath clipPathUnits="userSpaceOnUse" id="clipPath7"
            >
                <path d="M-7 -7 L1395 -7 L1395 113 L-7 113 L-7 -7 Z"
                />
            </clipPath
            >
            <clipPath clipPathUnits="userSpaceOnUse" id="clipPath8"
            >
                <path d="M0 0 L0 87 L1384 87 L1384 0 Z"
                />
            </clipPath
            >
            <clipPath clipPathUnits="userSpaceOnUse" id="clipPath9"
            >
                <path d="M0 0 L0 15 L1384 15 L1384 0 Z"
                />
            </clipPath
            >
            <clipPath clipPathUnits="userSpaceOnUse" id="clipPath10"
            >
                <path d="M-7 -7 L238 -7 L238 51 L-7 51 L-7 -7 Z"
                />
            </clipPath
            >
            <clipPath clipPathUnits="userSpaceOnUse" id="clipPath11"
            >
                <path d="M0 0 L0 25 L227 25 L227 0 Z"
                />
            </clipPath
            >
            <clipPath clipPathUnits="userSpaceOnUse" id="clipPath12"
            >
                <path d="M0 0 L0 15 L227 15 L227 0 Z"
                />
            </clipPath
            >
            <clipPath clipPathUnits="userSpaceOnUse" id="clipPath13"
            >
                <path d="M-7 -7 L1279 -7 L1279 113 L-7 113 L-7 -7 Z"
                />
            </clipPath
            >
            <clipPath clipPathUnits="userSpaceOnUse" id="clipPath14"
            >
                <path d="M0 0 L0 86 L1268 86 L1268 0 Z"
                />
            </clipPath
            >
            <clipPath clipPathUnits="userSpaceOnUse" id="clipPath15"
            >
                <path d="M0 0 L0 16 L1268 16 L1268 0 Z"
                />
            </clipPath
            >
            <clipPath clipPathUnits="userSpaceOnUse" id="clipPath16"
            >
                <path d="M-7 -7 L144 -7 L144 65 L-7 65 L-7 -7 Z"
                />
            </clipPath
            >
            <clipPath clipPathUnits="userSpaceOnUse" id="clipPath17"
            >
                <path d="M0 0 L0 38 L133 38 L133 0 Z"
                />
            </clipPath
            >
            <clipPath clipPathUnits="userSpaceOnUse" id="clipPath18"
            >
                <path d="M0 0 L0 16 L133 16 L133 0 Z"
                />
            </clipPath
            >
            <clipPath clipPathUnits="userSpaceOnUse" id="clipPath19"
            >
                <path d="M-7 -7 L268 -7 L268 68 L-7 68 L-7 -7 Z"
                />
            </clipPath
            >
            <clipPath clipPathUnits="userSpaceOnUse" id="clipPath20"
            >
                <path d="M0 0 L0 41 L257 41 L257 0 Z"
                />
            </clipPath
            >
            <clipPath clipPathUnits="userSpaceOnUse" id="clipPath21"
            >
                <path d="M0 0 L0 16 L257 16 L257 0 Z"
                />
            </clipPath
            >
            <clipPath clipPathUnits="userSpaceOnUse" id="clipPath22"
            >
                <path d="M-7 -7 L884 -7 L884 51 L-7 51 L-7 -7 Z"
                />
            </clipPath
            >
            <clipPath clipPathUnits="userSpaceOnUse" id="clipPath23"
            >
                <path d="M0 0 L0 24 L873 24 L873 0 Z"
                />
            </clipPath
            >
            <clipPath clipPathUnits="userSpaceOnUse" id="clipPath24"
            >
                <path d="M0 0 L0 16 L872 16 L872 0 Z"
                />
            </clipPath
            >
            <clipPath clipPathUnits="userSpaceOnUse" id="clipPath25"
            >
                <path d="M-7 -7 L37 -7 L37 27 L-7 27 L-7 -7 Z"
                />
            </clipPath
            >
            <clipPath clipPathUnits="userSpaceOnUse" id="clipPath26"
            >
                <path d="M0 0 L0 16 L27 16 L27 0 Z"
                />
            </clipPath
            >
            <clipPath clipPathUnits="userSpaceOnUse" id="clipPath27"
            >
                <path d="M-7 -7 L35 -7 L35 27 L-7 27 L-7 -7 Z"
                />
            </clipPath
            >
            <clipPath clipPathUnits="userSpaceOnUse" id="clipPath28"
            >
                <path d="M0 0 L0 16 L24 16 L24 0 Z"
                />
            </clipPath
            >
            <clipPath clipPathUnits="userSpaceOnUse" id="clipPath29"
            >
                <path d="M-7 -7 L38 -7 L38 27 L-7 27 L-7 -7 Z"
                />
            </clipPath
            >
            <clipPath clipPathUnits="userSpaceOnUse" id="clipPath30"
            >
                <path d="M-7 -7 L38 -7 L38 26 L-7 26 L-7 -7 Z"
                />
            </clipPath
            >
            <clipPath clipPathUnits="userSpaceOnUse" id="clipPath31"
            >
                <path d="M0 0 L104 0 L104 364 L0 364 L0 0 Z"
                />
            </clipPath
            >
            <clipPath clipPathUnits="userSpaceOnUse" id="clipPath32"
            >
                <path d="M0 0 L0 364 L104 364 L104 0 Z"
                />
            </clipPath
            >
            <clipPath clipPathUnits="userSpaceOnUse" id="clipPath33"
            >
                <path d="M0 0 L498 0 L498 332 L0 332 L0 0 Z"
                />
            </clipPath
            >
            <clipPath clipPathUnits="userSpaceOnUse" id="clipPath34"
            >
                <path d="M0 0 L0 332 L498 332 L498 0 Z"
                />
            </clipPath
            >
            <clipPath clipPathUnits="userSpaceOnUse" id="clipPath35"
            >
                <path d="M0 0 L248 0 L248 481 L0 481 L0 0 Z"
                />
            </clipPath
            >
            <clipPath clipPathUnits="userSpaceOnUse" id="clipPath36"
            >
                <path d="M228 228 L228 244 L149 244 L149 228 ZM0 0 L0 481 L248 481 L248 0 Z"
                />
            </clipPath
            >
            <clipPath clipPathUnits="userSpaceOnUse" id="clipPath37"
            >
                <path d="M0 0 L115 0 L115 264 L0 264 L0 0 Z"
                />
            </clipPath
            >
            <clipPath clipPathUnits="userSpaceOnUse" id="clipPath38"
            >
                <path d="M96 130 L96 146 L23 146 L23 130 ZM0 0 L0 264 L115 264 L115 0 Z"
                />
            </clipPath
            >
            <clipPath clipPathUnits="userSpaceOnUse" id="clipPath39"
            >
                <path d="M0 0 L276 0 L276 390 L0 390 L0 0 Z"
                />
            </clipPath
            >
            <clipPath clipPathUnits="userSpaceOnUse" id="clipPath40"
            >
                <path d="M253 174 L253 190 L174 190 L174 174 ZM0 0 L0 390 L276 390 L276 0 Z"
                />
            </clipPath
            >
            <clipPath clipPathUnits="userSpaceOnUse" id="clipPath41"
            >
                <path d="M0 0 L374 0 L374 177 L0 177 L0 0 Z"
                />
            </clipPath
            >
            <clipPath clipPathUnits="userSpaceOnUse" id="clipPath42"
            >
                <path d="M202 87 L202 103 L143 103 L143 87 ZM222 159 L222 175 L163 175 L163 159 ZM0 0 L0 29 L29 29 L29 45 L0 45 L0 177 L374 177 L374 0 Z"
                />
            </clipPath
            >
            <clipPath clipPathUnits="userSpaceOnUse" id="clipPath43"
            >
                <path d="M0 0 L374 0 L374 171 L0 171 L0 0 Z"
                />
            </clipPath
            >
            <clipPath clipPathUnits="userSpaceOnUse" id="clipPath44"
            >
                <path d="M222 72 L222 88 L163 88 L163 72 ZM0 0 L0 171 L374 171 L374 0 L202 0 L202 16 L143 16 L143 0 Z"
                />
            </clipPath
            >
            <clipPath clipPathUnits="userSpaceOnUse" id="clipPath45"
            >
                <path d="M-59 -16 L118 -16 L118 32 L-59 32 L-59 -16 Z"
                />
            </clipPath
            >
            <clipPath clipPathUnits="userSpaceOnUse" id="clipPath46"
            >
                <path d="M-69 -16 L108 -16 L108 32 L-69 32 L-69 -16 Z"
                />
            </clipPath
            >
            <clipPath clipPathUnits="userSpaceOnUse" id="clipPath47"
            >
                <path d="M-79 -16 L158 -16 L158 32 L-79 32 L-79 -16 Z"
                />
            </clipPath
            >
            <clipPath clipPathUnits="userSpaceOnUse" id="clipPath48"
            >
                <path d="M-89 -16 L148 -16 L148 32 L-89 32 L-89 -16 Z"
                />
            </clipPath
            >
            <clipPath clipPathUnits="userSpaceOnUse" id="clipPath49"
            >
                <path d="M-73 -16 L146 -16 L146 32 L-73 32 L-73 -16 Z"
                />
            </clipPath
            >
            <clipPath clipPathUnits="userSpaceOnUse" id="clipPath50"
            >
                <path d="M-84 -16 L135 -16 L135 32 L-84 32 L-84 -16 Z"
                />
            </clipPath
            >
        </defs
        >
        <g fill="white" text-rendering="geometricPrecision" fill-opacity="1" stroke-opacity="1" stroke="white"
        >
            <rect x="0" width="3490" height="734" y="0" stroke="none"
            />
        </g
        >
        <g font-size="11px" transform="translate(2531,285)" fill-opacity="1" fill="rgb(122,207,245)"
           text-rendering="geometricPrecision" image-rendering="optimizeQuality" font-family="sans-serif"
           stroke="rgb(122,207,245)" font-weight="bold" stroke-opacity="1"
        >
            <rect x="0" width="956" height="40" y="0" clip-path="url(#clipPath1)" stroke="none"
            />
        </g
        >
        <g fill-opacity="1" text-rendering="geometricPrecision" stroke="black" stroke-linecap="butt"
           transform="translate(2531,285)" stroke-miterlimit="0" stroke-opacity="1" fill="black" font-weight="bold"
           font-family="sans-serif" stroke-linejoin="round" font-size="11px" image-rendering="optimizeQuality"
        >
            <rect fill="none" x="0" width="956" height="40" y="0" clip-path="url(#clipPath1)"
            />
            <line y2="16" fill="none" x1="0" clip-path="url(#clipPath1)" x2="956" y1="16"
            />
        </g
        >
        <g font-size="11px" transform="translate(2531,285)" fill-opacity="1" fill="black"
           text-rendering="geometricPrecision" image-rendering="optimizeQuality" font-family="sans-serif" stroke="black"
           font-weight="bold" stroke-opacity="1"
        >
            <text x="385" xml:space="preserve" y="12" clip-path="url(#clipPath2)" stroke="none"
      >CommunityMassVaccinationCenter</text
    >
        </g
        >
        <g font-size="11px" transform="matrix(1,0,0,1,2531,301)" fill-opacity="1" fill="black"
           text-rendering="geometricPrecision" image-rendering="optimizeQuality" font-family="sans-serif" stroke="black"
           stroke-opacity="1"
        >
            <text x="2" xml:space="preserve" y="14" clip-path="url(#clipPath3)" stroke="none"
      >+CommunityMassVaccinationCenter(id, name, address, phoneNumber, email, faxNumber, websiteAddress, openingHoursList, closingHoursList, slotDuration, vaccinesPerSlot, centerCoordinator)</text
    >
        </g
        >
        <g font-size="11px" transform="translate(1515,2)" fill-opacity="1" fill="rgb(122,207,245)"
           text-rendering="geometricPrecision" image-rendering="optimizeQuality" font-family="sans-serif"
           stroke="rgb(122,207,245)" font-weight="bold" stroke-opacity="1"
        >
            <rect x="0" width="843" height="222" y="0" clip-path="url(#clipPath4)" stroke="none"
            />
        </g
        >
        <g fill-opacity="1" text-rendering="geometricPrecision" stroke="black" stroke-linecap="butt"
           transform="translate(1515,2)" stroke-miterlimit="0" stroke-opacity="1" fill="black" font-weight="bold"
           font-family="sans-serif" stroke-linejoin="round" font-size="11px" image-rendering="optimizeQuality"
        >
            <rect fill="none" x="0" width="843" height="222" y="0" clip-path="url(#clipPath4)"
            />
            <line y2="15" fill="none" x1="0" clip-path="url(#clipPath4)" x2="843" y1="15"
            />
        </g
        >
        <g font-size="11px" transform="matrix(1,0,0,1,1515,17)" fill-opacity="1" fill="black"
           text-rendering="geometricPrecision" image-rendering="optimizeQuality" font-family="sans-serif" stroke="black"
           stroke-opacity="1"
        >
            <text x="2" xml:space="preserve" y="14" clip-path="url(#clipPath5)" stroke="none"
      >-name : string</text
    >
        </g
        >
        <g font-size="11px" transform="matrix(1,0,0,1,1515,17)" fill-opacity="1" fill="black"
           text-rendering="geometricPrecision" image-rendering="optimizeQuality" font-family="sans-serif" stroke="black"
           stroke-opacity="1"
        >
            <text x="2" xml:space="preserve" y="29" clip-path="url(#clipPath5)" stroke="none"
      >-address : string</text
    >
        </g
        >
        <g font-size="11px" transform="matrix(1,0,0,1,1515,17)" fill-opacity="1" fill="black"
           text-rendering="geometricPrecision" image-rendering="optimizeQuality" font-family="sans-serif" stroke="black"
           stroke-opacity="1"
        >
            <text x="2" xml:space="preserve" y="44" clip-path="url(#clipPath5)" stroke="none"
      >-phoneNumber : int</text
    >
        </g
        >
        <g font-size="11px" transform="matrix(1,0,0,1,1515,17)" fill-opacity="1" fill="black"
           text-rendering="geometricPrecision" image-rendering="optimizeQuality" font-family="sans-serif" stroke="black"
           stroke-opacity="1"
        >
            <text x="2" xml:space="preserve" y="59" clip-path="url(#clipPath5)" stroke="none"
      >-email : string</text
    >
        </g
        >
        <g font-size="11px" transform="matrix(1,0,0,1,1515,17)" fill-opacity="1" fill="black"
           text-rendering="geometricPrecision" image-rendering="optimizeQuality" font-family="sans-serif" stroke="black"
           stroke-opacity="1"
        >
            <text x="2" xml:space="preserve" y="74" clip-path="url(#clipPath5)" stroke="none"
      >-faxNumber : int</text
    >
        </g
        >
        <g font-size="11px" transform="matrix(1,0,0,1,1515,17)" fill-opacity="1" fill="black"
           text-rendering="geometricPrecision" image-rendering="optimizeQuality" font-family="sans-serif" stroke="black"
           stroke-opacity="1"
        >
            <text x="2" xml:space="preserve" y="89" clip-path="url(#clipPath5)" stroke="none"
      >-websiteAddress : string</text
    >
        </g
        >
        <g font-size="11px" transform="matrix(1,0,0,1,1515,17)" fill-opacity="1" fill="black"
           text-rendering="geometricPrecision" image-rendering="optimizeQuality" font-family="sans-serif" stroke="black"
           stroke-opacity="1"
        >
            <text x="2" xml:space="preserve" y="104" clip-path="url(#clipPath5)" stroke="none"
      >-openingHoursList</text
    >
        </g
        >
        <g font-size="11px" transform="matrix(1,0,0,1,1515,17)" fill-opacity="1" fill="black"
           text-rendering="geometricPrecision" image-rendering="optimizeQuality" font-family="sans-serif" stroke="black"
           stroke-opacity="1"
        >
            <text x="2" xml:space="preserve" y="119" clip-path="url(#clipPath5)" stroke="none"
      >-closingHoursList</text
    >
        </g
        >
        <g font-size="11px" transform="matrix(1,0,0,1,1515,17)" fill-opacity="1" fill="black"
           text-rendering="geometricPrecision" image-rendering="optimizeQuality" font-family="sans-serif" stroke="black"
           stroke-opacity="1"
        >
            <text x="2" xml:space="preserve" y="134" clip-path="url(#clipPath5)" stroke="none"
      >-slotDuration : int</text
    >
        </g
        >
        <g font-size="11px" transform="matrix(1,0,0,1,1515,17)" fill-opacity="1" fill="black"
           text-rendering="geometricPrecision" image-rendering="optimizeQuality" font-family="sans-serif" stroke="black"
           stroke-opacity="1"
        >
            <text x="2" xml:space="preserve" y="149" clip-path="url(#clipPath5)" stroke="none"
      >-vaccinesPerSlot : int</text
    >
        </g
        >
        <g font-size="11px" transform="matrix(1,0,0,1,1515,17)" fill-opacity="1" fill="black"
           text-rendering="geometricPrecision" image-rendering="optimizeQuality" font-family="sans-serif" stroke="black"
           stroke-opacity="1"
        >
            <text x="2" xml:space="preserve" y="164" clip-path="url(#clipPath5)" stroke="none"
      >-centerCoordinator : Employee</text
      >
            <line stroke-linecap="butt" clip-path="url(#clipPath5)" fill="none" x1="0" x2="843" y1="169" y2="169"
                  stroke-linejoin="bevel" stroke-miterlimit="0"
            />
        </g
        >
        <g font-size="11px" transform="matrix(1,0,0,1,1515,17)" fill-opacity="1" fill="black"
           text-rendering="geometricPrecision" image-rendering="optimizeQuality" font-family="sans-serif" stroke="black"
           stroke-opacity="1"
        >
            <text x="2" xml:space="preserve" y="183" clip-path="url(#clipPath5)" stroke="none"
      >+VaccinationCenter(name, address, phoneNumber, email, faxNumber, websiteAddress, openingHours, closingHours, slotDuration, vaccinesPerSlot, centerCoordinator)</text
    >
        </g
        >
        <g font-size="11px" transform="translate(1515,2)" fill-opacity="1" fill="black"
           text-rendering="geometricPrecision" image-rendering="optimizeQuality" font-family="sans-serif" stroke="black"
           font-weight="bold" stroke-opacity="1"
        >
            <text x="375" xml:space="preserve" y="12" clip-path="url(#clipPath6)" stroke="none"
      >VacinationCenter</text
    >
        </g
        >
        <g font-size="11px" transform="translate(0,342)" fill-opacity="1" fill="rgb(122,207,245)"
           text-rendering="geometricPrecision" image-rendering="optimizeQuality" font-family="sans-serif"
           stroke="rgb(122,207,245)" font-weight="bold" stroke-opacity="1"
        >
            <rect x="0" width="1384" height="102" y="0" clip-path="url(#clipPath7)" stroke="none"
            />
        </g
        >
        <g fill-opacity="1" text-rendering="geometricPrecision" stroke="black" stroke-linecap="butt"
           transform="translate(0,342)" stroke-miterlimit="0" stroke-opacity="1" fill="black" font-weight="bold"
           font-family="sans-serif" stroke-linejoin="round" font-size="11px" image-rendering="optimizeQuality"
        >
            <rect fill="none" x="0" width="1384" height="102" y="0" clip-path="url(#clipPath7)"
            />
            <line y2="15" fill="none" x1="0" clip-path="url(#clipPath7)" x2="1384" y1="15"
            />
        </g
        >
        <g font-size="11px" transform="matrix(1,0,0,1,0,357)" fill-opacity="1" fill="black"
           text-rendering="geometricPrecision" image-rendering="optimizeQuality" font-family="sans-serif" stroke="black"
           stroke-opacity="1"
        >
            <text x="2" xml:space="preserve" y="14" clip-path="url(#clipPath8)" stroke="none"
      >-vaccinationCenterStore : VaccinationCenterStore</text
    >
        </g
        >
        <g font-size="11px" transform="matrix(1,0,0,1,0,357)" fill-opacity="1" fill="black"
           text-rendering="geometricPrecision" image-rendering="optimizeQuality" font-family="sans-serif" stroke="black"
           stroke-opacity="1"
        >
            <text x="2" xml:space="preserve" y="29" clip-path="url(#clipPath8)" stroke="none"
      >-vaccinationCenter : VaccinationCenter</text
      >
            <line stroke-linecap="butt" clip-path="url(#clipPath8)" fill="none" x1="0" x2="1384" y1="34" y2="34"
                  stroke-linejoin="bevel" stroke-miterlimit="0"
            />
        </g
        >
        <g font-size="11px" transform="matrix(1,0,0,1,0,357)" fill-opacity="1" fill="black"
           text-rendering="geometricPrecision" image-rendering="optimizeQuality" font-family="sans-serif" stroke="black"
           stroke-opacity="1"
        >
            <text x="2" xml:space="preserve" y="48" clip-path="url(#clipPath8)" stroke="none"
      >+createVaccinationCenter(name : string, address : string, phoneNumber : int, email : string, faxNumber : int, websiteAddress : string, openingHoursList, closingHoursList, slotDuration : int, vaccinesPerSlot : int, vaccionationCenterType : string, centerCoordinator : Employee) : boolean</text
    >
        </g
        >
        <g font-size="11px" transform="matrix(1,0,0,1,0,357)" fill-opacity="1" fill="black"
           text-rendering="geometricPrecision" image-rendering="optimizeQuality" font-family="sans-serif" stroke="black"
           stroke-opacity="1"
        >
            <text x="2" xml:space="preserve" y="63" clip-path="url(#clipPath8)" stroke="none"
      >+saveVaccinationCenter() : boolean</text
    >
        </g
        >
        <g font-size="11px" transform="translate(0,342)" fill-opacity="1" fill="black"
           text-rendering="geometricPrecision" image-rendering="optimizeQuality" font-family="sans-serif" stroke="black"
           font-weight="bold" stroke-opacity="1"
        >
            <text x="584" xml:space="preserve" y="12" clip-path="url(#clipPath9)" stroke="none"
      >RegisterNewVaccinationCenterController</text
    >
        </g
        >
        <g font-size="11px" transform="translate(386,40)" fill-opacity="1" fill="rgb(122,207,245)"
           text-rendering="geometricPrecision" image-rendering="optimizeQuality" font-family="sans-serif"
           stroke="rgb(122,207,245)" font-weight="bold" stroke-opacity="1"
        >
            <rect x="0" width="227" height="40" y="0" clip-path="url(#clipPath10)" stroke="none"
            />
        </g
        >
        <g fill-opacity="1" text-rendering="geometricPrecision" stroke="black" stroke-linecap="butt"
           transform="translate(386,40)" stroke-miterlimit="0" stroke-opacity="1" fill="black" font-weight="bold"
           font-family="sans-serif" stroke-linejoin="round" font-size="11px" image-rendering="optimizeQuality"
        >
            <rect fill="none" x="0" width="227" height="40" y="0" clip-path="url(#clipPath10)"
            />
            <line y2="15" fill="none" x1="0" clip-path="url(#clipPath10)" x2="227" y1="15"
            />
        </g
        >
        <g font-size="11px" transform="translate(386,40)" fill-opacity="1" fill="black"
           text-rendering="geometricPrecision" image-rendering="optimizeQuality" font-family="sans-serif" stroke="black"
           font-weight="bold" stroke-opacity="1"
        >
            <text x="25" xml:space="preserve" y="12" clip-path="url(#clipPath12)" stroke="none"
      >RegisterNewVaccinationCenterUI</text
    >
        </g
        >
        <g font-size="11px" transform="translate(326,538)" fill-opacity="1" fill="rgb(122,207,245)"
           text-rendering="geometricPrecision" image-rendering="optimizeQuality" font-family="sans-serif"
           stroke="rgb(122,207,245)" font-weight="bold" stroke-opacity="1"
        >
            <rect x="0" width="1268" height="102" y="0" clip-path="url(#clipPath13)" stroke="none"
            />
        </g
        >
        <g fill-opacity="1" text-rendering="geometricPrecision" stroke="black" stroke-linecap="butt"
           transform="translate(326,538)" stroke-miterlimit="0" stroke-opacity="1" fill="black" font-weight="bold"
           font-family="sans-serif" stroke-linejoin="round" font-size="11px" image-rendering="optimizeQuality"
        >
            <rect fill="none" x="0" width="1268" height="102" y="0" clip-path="url(#clipPath13)"
            />
            <line y2="16" fill="none" x1="0" clip-path="url(#clipPath13)" x2="1268" y1="16"
            />
        </g
        >
        <g font-size="11px" transform="matrix(1,0,0,1,326,554)" fill-opacity="1" fill="black"
           text-rendering="geometricPrecision" image-rendering="optimizeQuality" font-family="sans-serif" stroke="black"
           stroke-opacity="1"
        >
            <text x="2" xml:space="preserve" y="14" clip-path="url(#clipPath14)" stroke="none"
      >-vaccinationCenterList : ArrayList&lt;VaccinationCenter&gt;</text
    >
        </g
        >
        <g stroke-linecap="butt" font-size="11px" transform="matrix(1,0,0,1,326,554)" fill-opacity="1" fill="black"
           text-rendering="geometricPrecision" image-rendering="optimizeQuality" font-family="sans-serif"
           stroke-linejoin="bevel" stroke="black" stroke-opacity="1" stroke-miterlimit="0"
        >
            <line y2="19" fill="none" x1="0" clip-path="url(#clipPath14)" x2="1268" y1="19"
            />
        </g
        >
        <g font-size="11px" transform="matrix(1,0,0,1,326,554)" fill-opacity="1" fill="black"
           text-rendering="geometricPrecision" image-rendering="optimizeQuality" font-family="sans-serif" stroke="black"
           stroke-opacity="1"
        >
            <text x="2" xml:space="preserve" y="33" clip-path="url(#clipPath14)" stroke="none"
      >+createVacinationCenter(name : string, address  : string, phoneNumber : int, email : string, faxNumber : int, websiteAddress : string, openingHoursList, closingHoursList, slotDuration : int, vaccinesPerSlot : int, centerCoordinator : Employee) : VaccinationCenter</text
    >
        </g
        >
        <g font-size="11px" transform="matrix(1,0,0,1,326,554)" fill-opacity="1" fill="black"
           text-rendering="geometricPrecision" image-rendering="optimizeQuality" font-family="sans-serif" stroke="black"
           stroke-opacity="1"
        >
            <text x="2" xml:space="preserve" y="48" clip-path="url(#clipPath14)" stroke="none"
      >+validateVaccinationCenter(vc : VaccinationCenter) : boolean</text
    >
        </g
        >
        <g font-size="11px" transform="matrix(1,0,0,1,326,554)" fill-opacity="1" fill="black"
           text-rendering="geometricPrecision" image-rendering="optimizeQuality" font-family="sans-serif" stroke="black"
           stroke-opacity="1"
        >
            <text x="2" xml:space="preserve" y="63" clip-path="url(#clipPath14)" stroke="none"
      >+saveVaccinationCenter(vc : VaccinationCenter) : boolean</text
    >
        </g
        >
        <g font-size="11px" transform="matrix(1,0,0,1,326,554)" fill-opacity="1" fill="black"
           text-rendering="geometricPrecision" image-rendering="optimizeQuality" font-family="sans-serif" stroke="black"
           stroke-opacity="1"
        >
            <text x="2" xml:space="preserve" y="78" clip-path="url(#clipPath14)" stroke="none"
      >+sendEmail(vc : VaccinationCenter, email : string) : void</text
    >
        </g
        >
        <g font-size="11px" transform="translate(326,538)" fill-opacity="1" fill="black"
           text-rendering="geometricPrecision" image-rendering="optimizeQuality" font-family="sans-serif" stroke="black"
           font-weight="bold" stroke-opacity="1"
        >
            <text x="571" xml:space="preserve" y="12" clip-path="url(#clipPath15)" stroke="none"
      >VaccinationCenterStore</text
    >
        </g
        >
        <g font-size="11px" transform="translate(2139,373)" fill-opacity="1" fill="rgb(122,207,245)"
           text-rendering="geometricPrecision" image-rendering="optimizeQuality" font-family="sans-serif"
           stroke="rgb(122,207,245)" font-weight="bold" stroke-opacity="1"
        >
            <rect x="0" width="133" height="54" y="0" clip-path="url(#clipPath16)" stroke="none"
            />
        </g
        >
        <g fill-opacity="1" text-rendering="geometricPrecision" stroke="black" stroke-linecap="butt"
           transform="translate(2139,373)" stroke-miterlimit="0" stroke-opacity="1" fill="black" font-weight="bold"
           font-family="sans-serif" stroke-linejoin="round" font-size="11px" image-rendering="optimizeQuality"
        >
            <rect fill="none" x="0" width="133" height="54" y="0" clip-path="url(#clipPath16)"
            />
            <line y2="16" fill="none" x1="0" clip-path="url(#clipPath16)" x2="133" y1="16"
            />
        </g
        >
        <g font-size="11px" transform="matrix(1,0,0,1,2139,389)" fill-opacity="1" fill="black"
           text-rendering="geometricPrecision" image-rendering="optimizeQuality" font-family="sans-serif" stroke="black"
           stroke-opacity="1"
        >
            <text x="2" xml:space="preserve" y="14" clip-path="url(#clipPath17)" stroke="none"
      >-description : string</text
    >
        </g
        >
        <g font-size="11px" transform="matrix(1,0,0,1,2139,389)" fill-opacity="1" fill="black"
           text-rendering="geometricPrecision" image-rendering="optimizeQuality" font-family="sans-serif" stroke="black"
           stroke-opacity="1"
        >
            <text x="2" xml:space="preserve" y="29" clip-path="url(#clipPath17)" stroke="none"
      >-idType : string</text
    >
        </g
        >
        <g font-size="11px" transform="translate(2139,373)" fill-opacity="1" fill="black"
           text-rendering="geometricPrecision" image-rendering="optimizeQuality" font-family="sans-serif" stroke="black"
           font-weight="bold" stroke-opacity="1"
        >
            <text x="4" xml:space="preserve" y="12" clip-path="url(#clipPath18)" stroke="none"
      >VaccinationCenterType</text
    >
        </g
        >
        <g font-size="11px" transform="translate(1788,674)" fill-opacity="1" fill="rgb(122,207,245)"
           text-rendering="geometricPrecision" image-rendering="optimizeQuality" font-family="sans-serif"
           stroke="rgb(122,207,245)" font-weight="bold" stroke-opacity="1"
        >
            <rect x="0" width="257" height="57" y="0" clip-path="url(#clipPath19)" stroke="none"
            />
        </g
        >
        <g fill-opacity="1" text-rendering="geometricPrecision" stroke="black" stroke-linecap="butt"
           transform="translate(1788,674)" stroke-miterlimit="0" stroke-opacity="1" fill="black" font-weight="bold"
           font-family="sans-serif" stroke-linejoin="round" font-size="11px" image-rendering="optimizeQuality"
        >
            <rect fill="none" x="0" width="257" height="57" y="0" clip-path="url(#clipPath19)"
            />
            <line y2="16" fill="none" x1="0" clip-path="url(#clipPath19)" x2="257" y1="16"
            />
        </g
        >
        <g font-size="11px" transform="matrix(1,0,0,1,1788,690)" fill-opacity="1" fill="black"
           text-rendering="geometricPrecision" image-rendering="optimizeQuality" font-family="sans-serif" stroke="black"
           stroke-opacity="1"
        >
            <text x="2" xml:space="preserve" y="14" clip-path="url(#clipPath20)" stroke="none"
      >-typeList : ArrayList&lt;VaccinationCenterType&gt;</text
    >
        </g
        >
        <g stroke-linecap="butt" font-size="11px" transform="matrix(1,0,0,1,1788,690)" fill-opacity="1" fill="black"
           text-rendering="geometricPrecision" image-rendering="optimizeQuality" font-family="sans-serif"
           stroke-linejoin="bevel" stroke="black" stroke-opacity="1" stroke-miterlimit="0"
        >
            <line y2="19" fill="none" x1="0" clip-path="url(#clipPath20)" x2="257" y1="19"
            />
        </g
        >
        <g font-size="11px" transform="matrix(1,0,0,1,1788,690)" fill-opacity="1" fill="black"
           text-rendering="geometricPrecision" image-rendering="optimizeQuality" font-family="sans-serif" stroke="black"
           stroke-opacity="1"
        >
            <text x="2" xml:space="preserve" y="33" clip-path="url(#clipPath20)" stroke="none"
      >+addType(idType : string, description : string) : void</text
    >
        </g
        >
        <g font-size="11px" transform="translate(1788,674)" fill-opacity="1" fill="black"
           text-rendering="geometricPrecision" image-rendering="optimizeQuality" font-family="sans-serif" stroke="black"
           font-weight="bold" stroke-opacity="1"
        >
            <text x="52" xml:space="preserve" y="12" clip-path="url(#clipPath21)" stroke="none"
      >VaccinationCenterTypeStore</text
    >
        </g
        >
        <g font-size="11px" transform="translate(2531,467)" fill-opacity="1" fill="rgb(122,207,245)"
           text-rendering="geometricPrecision" image-rendering="optimizeQuality" font-family="sans-serif"
           stroke="rgb(122,207,245)" font-weight="bold" stroke-opacity="1"
        >
            <rect x="0" width="873" height="40" y="0" clip-path="url(#clipPath22)" stroke="none"
            />
        </g
        >
        <g fill-opacity="1" text-rendering="geometricPrecision" stroke="black" stroke-linecap="butt"
           transform="translate(2531,467)" stroke-miterlimit="0" stroke-opacity="1" fill="black" font-weight="bold"
           font-family="sans-serif" stroke-linejoin="round" font-size="11px" image-rendering="optimizeQuality"
        >
            <rect fill="none" x="0" width="873" height="40" y="0" clip-path="url(#clipPath22)"
            />
            <line y2="16" fill="none" x1="0" clip-path="url(#clipPath22)" x2="873" y1="16"
            />
        </g
        >
        <g font-size="11px" transform="matrix(1,0,0,1,2531,483)" fill-opacity="1" fill="black"
           text-rendering="geometricPrecision" image-rendering="optimizeQuality" font-family="sans-serif" stroke="black"
           stroke-opacity="1"
        >
            <text x="2" xml:space="preserve" y="14" clip-path="url(#clipPath23)" stroke="none"
      >+HealthCareCenter(id, name, address, phoneNumber, email, faxNumber, websiteAddress, openingHoursList, closingHoursList, slotDuration, vaccinesPerSlot, centerCoordinator)</text
    >
        </g
        >
        <g font-size="11px" transform="translate(2531,467)" fill-opacity="1" fill="black"
           text-rendering="geometricPrecision" image-rendering="optimizeQuality" font-family="sans-serif" stroke="black"
           font-weight="bold" stroke-opacity="1"
        >
            <text x="389" xml:space="preserve" y="12" clip-path="url(#clipPath24)" stroke="none"
      >HealthCareCenter</text
    >
        </g
        >
        <g font-size="11px" transform="translate(1598,568)" fill-opacity="1" fill="black"
           text-rendering="geometricPrecision" image-rendering="optimizeQuality" font-family="sans-serif" stroke="black"
           stroke-opacity="1"
        >
            <text x="10" xml:space="preserve" y="12" clip-path="url(#clipPath26)" stroke="none"
      >1</text
    >
        </g
        >
        <g font-size="11px" transform="translate(1738,229)" fill-opacity="1" fill="black"
           text-rendering="geometricPrecision" image-rendering="optimizeQuality" font-family="sans-serif" stroke="black"
           stroke-opacity="1"
        >
            <text x="9" xml:space="preserve" y="12" clip-path="url(#clipPath28)" stroke="none"
      >*</text
    >
        </g
        >
        <g font-size="11px" transform="translate(2182,350)" fill-opacity="1" fill="black"
           text-rendering="geometricPrecision" image-rendering="optimizeQuality" font-family="sans-serif" stroke="black"
           stroke-opacity="1"
        >
            <text x="10" xml:space="preserve" y="12" clip-path="url(#clipPath26)" stroke="none"
      >1</text
    >
        </g
        >
        <g font-size="11px" transform="translate(2210,226)" fill-opacity="1" fill="black"
           text-rendering="geometricPrecision" image-rendering="optimizeQuality" font-family="sans-serif" stroke="black"
           stroke-opacity="1"
        >
            <text x="10" xml:space="preserve" y="12" clip-path="url(#clipPath26)" stroke="none"
      >1</text
    >
        </g
        >
        <g font-size="11px" transform="translate(2216,437)" fill-opacity="1" fill="black"
           text-rendering="geometricPrecision" image-rendering="optimizeQuality" font-family="sans-serif" stroke="black"
           stroke-opacity="1"
        >
            <text x="9" xml:space="preserve" y="12" clip-path="url(#clipPath28)" stroke="none"
      >*</text
    >
        </g
        >
        <g font-size="11px" transform="translate(2050,684)" fill-opacity="1" fill="black"
           text-rendering="geometricPrecision" image-rendering="optimizeQuality" font-family="sans-serif" stroke="black"
           stroke-opacity="1"
        >
            <text x="10" xml:space="preserve" y="12" clip-path="url(#clipPath26)" stroke="none"
      >1</text
    >
        </g
        >
        <g fill-opacity="1" text-rendering="geometricPrecision" stroke="black" stroke-linecap="butt"
           transform="translate(440,31)" stroke-opacity="1" fill="black" stroke-dasharray="5" font-family="sans-serif"
           stroke-linejoin="round" font-size="11px" stroke-dashoffset="1" image-rendering="optimizeQuality"
        >
            <line y2="310" fill="none" x1="50" clip-path="url(#clipPath32)" x2="50" y1="50"
            />
            <line clip-path="url(#clipPath32)" stroke-dashoffset="0" fill="none" x1="50" x2="56" y1="310" y2="298"
                  stroke-dasharray="none"
            />
            <line clip-path="url(#clipPath32)" stroke-dashoffset="0" fill="none" x1="50" x2="44" y1="310" y2="298"
                  stroke-dasharray="none"
            />
        </g
        >
        <g fill-opacity="1" text-rendering="geometricPrecision" stroke="black" stroke-linecap="butt"
           transform="translate(1070,63)" stroke-opacity="1" fill="black" stroke-dasharray="5" font-family="sans-serif"
           stroke-linejoin="round" font-size="11px" stroke-dashoffset="1" image-rendering="optimizeQuality"
        >
            <line y2="50" fill="none" x1="50" clip-path="url(#clipPath34)" x2="50" y1="278"
            />
            <line y2="50" fill="none" x1="50" clip-path="url(#clipPath34)" x2="444" y1="50"
            />
            <line clip-path="url(#clipPath34)" stroke-dashoffset="0" fill="none" x1="444" x2="432" y1="50" y2="44"
                  stroke-dasharray="none"
            />
            <line clip-path="url(#clipPath34)" stroke-dashoffset="0" fill="none" x1="444" x2="432" y1="50" y2="56"
                  stroke-dasharray="none"
            />
        </g
        >
        <g stroke-linecap="butt" font-size="11px" transform="translate(1538,168)" fill-opacity="1" fill="black"
           text-rendering="geometricPrecision" image-rendering="optimizeQuality" font-family="sans-serif"
           stroke-linejoin="round" stroke="black" stroke-opacity="1"
        >
            <line y2="421" fill="none" x1="56" clip-path="url(#clipPath36)" x2="189" y1="421"
            />
            <line y2="56" fill="none" x1="189" clip-path="url(#clipPath36)" x2="189" y1="421"
            />
        </g
        >
        <g stroke-linecap="butt" font-size="11px" transform="translate(2150,168)" fill-opacity="1" fill="black"
           text-rendering="geometricPrecision" image-rendering="optimizeQuality" font-family="sans-serif"
           stroke-linejoin="round" stroke="black" stroke-opacity="1"
        >
            <line y2="56" fill="none" x1="56" clip-path="url(#clipPath38)" x2="56" y1="204"
            />
        </g
        >
        <g stroke-linecap="butt" font-size="11px" transform="translate(1989,372)" fill-opacity="1" fill="black"
           text-rendering="geometricPrecision" image-rendering="optimizeQuality" font-family="sans-serif"
           stroke-linejoin="round" stroke="black" stroke-opacity="1"
        >
            <line y2="330" fill="none" x1="56" clip-path="url(#clipPath40)" x2="217" y1="330"
            />
            <line y2="56" fill="none" x1="217" clip-path="url(#clipPath40)" x2="217" y1="330"
            />
        </g
        >
        <g stroke-linecap="butt" font-size="11px" transform="translate(2217,269)" fill-opacity="1" fill="black"
           text-rendering="geometricPrecision" image-rendering="optimizeQuality" font-family="sans-serif"
           stroke-linejoin="round" stroke="black" stroke-opacity="1"
        >
            <line y2="118" fill="none" x1="314" clip-path="url(#clipPath42)" x2="56" y1="56"
            />
        </g
        >
        <g stroke-linecap="butt" font-size="11px" transform="translate(2217,356)" fill-opacity="1" fill="black"
           text-rendering="geometricPrecision" image-rendering="optimizeQuality" font-family="sans-serif"
           stroke-linejoin="round" stroke="black" stroke-opacity="1"
        >
            <line y2="56" fill="none" x1="314" clip-path="url(#clipPath44)" x2="56" y1="111"
            />
        </g
        >
        <g font-size="11px" transform="translate(2390,428)" fill-opacity="1" fill="black"
           text-rendering="geometricPrecision" image-rendering="optimizeQuality" font-family="sans-serif" stroke="black"
           stroke-opacity="1"
        >
            <path d="M1.6624 5.056 L15.4483 3.0689 L13.2268 12.8191 Z" stroke="none" clip-path="url(#clipPath46)"
            />
            <text x="27" xml:space="preserve" y="12" clip-path="url(#clipPath45)" transform="translate(-10,0)"
                  stroke="none"
            >is of</text
            >
        </g
        >
        <g font-size="11px" transform="translate(2370,356)" fill-opacity="1" fill="black"
           text-rendering="geometricPrecision" image-rendering="optimizeQuality" font-family="sans-serif" stroke="black"
           stroke-opacity="1"
        >
            <path d="M1.7085 8.1331 L13.0353 0.0273 L15.5477 9.7065 Z" stroke="none" clip-path="url(#clipPath46)"
            />
            <text x="27" xml:space="preserve" y="12" clip-path="url(#clipPath45)" transform="translate(-10,0)"
                  stroke="none"
            >is of</text
            >
        </g
        >
        <g font-size="11px" transform="translate(2173,546)" fill-opacity="1" fill="black"
           text-rendering="geometricPrecision" image-rendering="optimizeQuality" font-family="sans-serif" stroke="black"
           stroke-opacity="1"
        >
            <path d="M8 0 L13 13 L3 13 Z" stroke="none" clip-path="url(#clipPath48)"
            />
            <text x="28" xml:space="preserve" y="12" clip-path="url(#clipPath47)" transform="translate(-10,0)"
                  stroke="none"
            >contains</text
            >
        </g
        >
        <g font-size="11px" transform="translate(2184,298)" fill-opacity="1" fill="black"
           text-rendering="geometricPrecision" image-rendering="optimizeQuality" font-family="sans-serif" stroke="black"
           stroke-opacity="1"
        >
            <path d="M8 0 L13 13 L3 13 Z" stroke="none" clip-path="url(#clipPath50)"
            />
            <text x="28" xml:space="preserve" y="12" clip-path="url(#clipPath49)" transform="translate(-11,0)"
                  stroke="none"
            >has an</text
            >
        </g
        >
        <g font-size="11px" transform="translate(1697,396)" fill-opacity="1" fill="black"
           text-rendering="geometricPrecision" image-rendering="optimizeQuality" font-family="sans-serif" stroke="black"
           stroke-opacity="1"
        >
            <path d="M8 0 L13 13 L3 13 Z" stroke="none" clip-path="url(#clipPath48)"
            />
            <text x="28" xml:space="preserve" y="12" clip-path="url(#clipPath47)" transform="translate(-10,0)"
                  stroke="none"
            >contains</text
            >
        </g
        >
        <g font-size="8px" fill-opacity="1" fill="rgb(120,120,120)" text-rendering="geometricPrecision"
           image-rendering="optimizeQuality" stroke="rgb(120,120,120)" stroke-opacity="1"
        >
            <text x="0" xml:space="preserve" y="10" stroke="none"
      >Visual Paradigm Standard(José Neves(Instituto Superior de Engenharia do Porto))</text
    >
        </g
        >
    </g
    >
</svg
>
