<?xml version="1.0" encoding="UTF-8"?>
<!DOCTYPE svg PUBLIC '-//W3C//DTD SVG 1.0//EN'
        'http://www.w3.org/TR/2001/REC-SVG-20010904/DTD/svg10.dtd'>
<svg fill-opacity="0" xmlns:xlink="http://www.w3.org/1999/xlink" color-rendering="auto" color-interpolation="auto"
     text-rendering="auto" stroke="rgb(0,0,0)" stroke-linecap="square" width="497" stroke-miterlimit="10"
     shape-rendering="auto" stroke-opacity="0" fill="rgb(0,0,0)" stroke-dasharray="none" font-weight="normal"
     stroke-width="1" height="335" xmlns="http://www.w3.org/2000/svg" font-family="'Dialog'" font-style="normal"
     stroke-linejoin="miter" font-size="12px" stroke-dashoffset="0" image-rendering="auto"
><!--Generated by the Batik Graphics2D SVG Generator-->
    <defs id="genericDefs"
    />
    <g
    >
        <defs id="defs1"
        >
            <clipPath clipPathUnits="userSpaceOnUse" id="clipPath1"
            >
                <path d="M-7 -7 L209 -7 L209 178 L-7 178 L-7 -7 Z"
                />
            </clipPath
            >
            <clipPath clipPathUnits="userSpaceOnUse" id="clipPath2"
            >
                <path d="M0 0 L0 152 L198 152 L198 0 Z"
                />
            </clipPath
            >
            <clipPath clipPathUnits="userSpaceOnUse" id="clipPath3"
            >
                <path d="M0 0 L0 15 L199 15 L199 0 Z"
                />
            </clipPath
            >
            <clipPath clipPathUnits="userSpaceOnUse" id="clipPath4"
            >
                <path d="M-7 -7 L141 -7 L141 70 L-7 70 L-7 -7 Z"
                />
            </clipPath
            >
            <clipPath clipPathUnits="userSpaceOnUse" id="clipPath5"
            >
                <path d="M0 0 L0 44 L130 44 L130 0 Z"
                />
            </clipPath
            >
            <clipPath clipPathUnits="userSpaceOnUse" id="clipPath6"
            >
                <path d="M0 0 L0 15 L130 15 L130 0 Z"
                />
            </clipPath
            >
            <clipPath clipPathUnits="userSpaceOnUse" id="clipPath7"
            >
                <path d="M-7 -7 L209 -7 L209 78 L-7 78 L-7 -7 Z"
                />
            </clipPath
            >
            <clipPath clipPathUnits="userSpaceOnUse" id="clipPath8"
            >
                <path d="M0 0 L0 52 L198 52 L198 0 Z"
                />
            </clipPath
            >
            <clipPath clipPathUnits="userSpaceOnUse" id="clipPath9"
            >
                <path d="M-7 -7 L91 -7 L91 51 L-7 51 L-7 -7 Z"
                />
            </clipPath
            >
            <clipPath clipPathUnits="userSpaceOnUse" id="clipPath10"
            >
                <path d="M0 0 L0 25 L80 25 L80 0 Z"
                />
            </clipPath
            >
            <clipPath clipPathUnits="userSpaceOnUse" id="clipPath11"
            >
                <path d="M0 0 L0 15 L81 15 L81 0 Z"
                />
            </clipPath
            >
            <clipPath clipPathUnits="userSpaceOnUse" id="clipPath12"
            >
                <path d="M0 0 L94 0 L94 188 L0 188 L0 0 Z"
                />
            </clipPath
            >
            <clipPath clipPathUnits="userSpaceOnUse" id="clipPath13"
            >
                <path d="M84 88 L84 105 L1 105 L1 88 ZM0 0 L0 188 L94 188 L94 0 Z"
                />
            </clipPath
            >
            <clipPath clipPathUnits="userSpaceOnUse" id="clipPath14"
            >
                <path d="M0 0 L281 0 L281 94 L0 94 L0 0 Z"
                />
            </clipPath
            >
            <clipPath clipPathUnits="userSpaceOnUse" id="clipPath15"
            >
                <path d="M194 39 L194 56 L68 56 L68 39 ZM0 0 L0 94 L281 94 L281 0 Z"
                />
            </clipPath
            >
            <clipPath clipPathUnits="userSpaceOnUse" id="clipPath16"
            >
                <path d="M0 0 L257 0 L257 94 L0 94 L0 0 Z"
                />
            </clipPath
            >
            <clipPath clipPathUnits="userSpaceOnUse" id="clipPath17"
            >
                <path d="M159 36 L159 53 L95 53 L95 36 ZM0 0 L0 94 L257 94 L257 0 Z"
                />
            </clipPath
            >
            <clipPath clipPathUnits="userSpaceOnUse" id="clipPath18"
            >
                <path d="M-64 -17 L128 -17 L128 34 L-64 34 L-64 -17 Z"
                />
            </clipPath
            >
            <clipPath clipPathUnits="userSpaceOnUse" id="clipPath19"
            >
                <path d="M-74 -17 L118 -17 L118 34 L-74 34 L-74 -17 Z"
                />
            </clipPath
            >
            <clipPath clipPathUnits="userSpaceOnUse" id="clipPath20"
            >
                <path d="M-126 -17 L252 -17 L252 34 L-126 34 L-126 -17 Z"
                />
            </clipPath
            >
            <clipPath clipPathUnits="userSpaceOnUse" id="clipPath21"
            >
                <path d="M-137 -17 L241 -17 L241 34 L-137 34 L-137 -17 Z"
                />
            </clipPath
            >
            <clipPath clipPathUnits="userSpaceOnUse" id="clipPath22"
            >
                <path d="M-83 -17 L166 -17 L166 34 L-83 34 L-83 -17 Z"
                />
            </clipPath
            >
            <clipPath clipPathUnits="userSpaceOnUse" id="clipPath23"
            >
                <path d="M-93 -17 L156 -17 L156 34 L-93 34 L-93 -17 Z"
                />
            </clipPath
            >
        </defs
        >
        <g fill="white" text-rendering="geometricPrecision" fill-opacity="1" stroke-opacity="1" stroke="white"
        >
            <rect x="0" width="497" height="335" y="0" stroke="none"
            />
        </g
        >
        <g font-size="11px" transform="translate(295,2)" fill-opacity="1" fill="rgb(122,207,245)"
           text-rendering="geometricPrecision" image-rendering="optimizeQuality" font-family="sans-serif"
           stroke="rgb(122,207,245)" font-weight="bold" stroke-opacity="1"
        >
            <rect x="0" width="198" height="167" y="0" clip-path="url(#clipPath1)" stroke="none"
            />
        </g
        >
        <g fill-opacity="1" text-rendering="geometricPrecision" stroke="black" stroke-linecap="butt"
           transform="translate(295,2)" stroke-miterlimit="0" stroke-opacity="1" fill="black" font-weight="bold"
           font-family="sans-serif" stroke-linejoin="round" font-size="11px" image-rendering="optimizeQuality"
        >
            <rect fill="none" x="0" width="198" height="167" y="0" clip-path="url(#clipPath1)"
            />
            <line y2="15" fill="none" x1="0" clip-path="url(#clipPath1)" x2="198" y1="15"
            />
        </g
        >
        <g font-size="11px" transform="matrix(1,0,0,1,295,17)" fill-opacity="1" fill="black"
           text-rendering="geometricPrecision" image-rendering="optimizeQuality" font-family="sans-serif" stroke="black"
           stroke-opacity="1"
        >
            <text x="2" xml:space="preserve" y="14" clip-path="url(#clipPath2)" stroke="none"
      >-name : string</text
    >
        </g
        >
        <g font-size="11px" transform="matrix(1,0,0,1,295,17)" fill-opacity="1" fill="black"
           text-rendering="geometricPrecision" image-rendering="optimizeQuality" font-family="sans-serif" stroke="black"
           stroke-opacity="1"
        >
            <text x="2" xml:space="preserve" y="29" clip-path="url(#clipPath2)" stroke="none"
      >-citizenCardNumber : int</text
    >
        </g
        >
        <g font-size="11px" transform="matrix(1,0,0,1,295,17)" fill-opacity="1" fill="black"
           text-rendering="geometricPrecision" image-rendering="optimizeQuality" font-family="sans-serif" stroke="black"
           stroke-opacity="1"
        >
            <text x="2" xml:space="preserve" y="44" clip-path="url(#clipPath2)" stroke="none"
      >-snsNumber : int</text
    >
        </g
        >
        <g font-size="11px" transform="matrix(1,0,0,1,295,17)" fill-opacity="1" fill="black"
           text-rendering="geometricPrecision" image-rendering="optimizeQuality" font-family="sans-serif" stroke="black"
           stroke-opacity="1"
        >
            <text x="2" xml:space="preserve" y="59" clip-path="url(#clipPath2)" stroke="none"
      >-birthDate : string</text
    >
        </g
        >
        <g font-size="11px" transform="matrix(1,0,0,1,295,17)" fill-opacity="1" fill="black"
           text-rendering="geometricPrecision" image-rendering="optimizeQuality" font-family="sans-serif" stroke="black"
           stroke-opacity="1"
        >
            <text x="2" xml:space="preserve" y="74" clip-path="url(#clipPath2)" stroke="none"
      >-sex : string</text
    >
        </g
        >
        <g font-size="11px" transform="matrix(1,0,0,1,295,17)" fill-opacity="1" fill="black"
           text-rendering="geometricPrecision" image-rendering="optimizeQuality" font-family="sans-serif" stroke="black"
           stroke-opacity="1"
        >
            <text x="2" xml:space="preserve" y="89" clip-path="url(#clipPath2)" stroke="none"
      >-taxIdNumber : int</text
    >
        </g
        >
        <g font-size="11px" transform="matrix(1,0,0,1,295,17)" fill-opacity="1" fill="black"
           text-rendering="geometricPrecision" image-rendering="optimizeQuality" font-family="sans-serif" stroke="black"
           stroke-opacity="1"
        >
            <text x="2" xml:space="preserve" y="104" clip-path="url(#clipPath2)" stroke="none"
      >-phoneNumber : int</text
    >
        </g
        >
        <g font-size="11px" transform="matrix(1,0,0,1,295,17)" fill-opacity="1" fill="black"
           text-rendering="geometricPrecision" image-rendering="optimizeQuality" font-family="sans-serif" stroke="black"
           stroke-opacity="1"
        >
            <text x="2" xml:space="preserve" y="119" clip-path="url(#clipPath2)" stroke="none"
      >-emailAdress : String</text
    >
        </g
        >
        <g font-size="11px" transform="translate(295,2)" fill-opacity="1" fill="black"
           text-rendering="geometricPrecision" image-rendering="optimizeQuality" font-family="sans-serif" stroke="black"
           font-weight="bold" stroke-opacity="1"
        >
            <text x="84" xml:space="preserve" y="12" clip-path="url(#clipPath3)" stroke="none"
      >Client</text
    >
        </g
        >
        <g font-size="11px" transform="translate(2,105)" fill-opacity="1" fill="rgb(122,207,245)"
           text-rendering="geometricPrecision" image-rendering="optimizeQuality" font-family="sans-serif"
           stroke="rgb(122,207,245)" font-weight="bold" stroke-opacity="1"
        >
            <rect x="0" width="130" height="59" y="0" clip-path="url(#clipPath4)" stroke="none"
            />
        </g
        >
        <g fill-opacity="1" text-rendering="geometricPrecision" stroke="black" stroke-linecap="butt"
           transform="translate(2,105)" stroke-miterlimit="0" stroke-opacity="1" fill="black" font-weight="bold"
           font-family="sans-serif" stroke-linejoin="round" font-size="11px" image-rendering="optimizeQuality"
        >
            <rect fill="none" x="0" width="130" height="59" y="0" clip-path="url(#clipPath4)"
            />
            <line y2="15" fill="none" x1="0" clip-path="url(#clipPath4)" x2="130" y1="15"
            />
        </g
        >
        <g font-size="11px" transform="matrix(1,0,0,1,2,120)" fill-opacity="1" fill="black"
           text-rendering="geometricPrecision" image-rendering="optimizeQuality" font-family="sans-serif" stroke="black"
           stroke-opacity="1"
        >
            <text x="2" xml:space="preserve" y="14" clip-path="url(#clipPath5)" stroke="none"
      >-designation : string</text
    >
        </g
        >
        <g font-size="11px" transform="translate(2,105)" fill-opacity="1" fill="black"
           text-rendering="geometricPrecision" image-rendering="optimizeQuality" font-family="sans-serif" stroke="black"
           font-weight="bold" stroke-opacity="1"
        >
            <text x="39" xml:space="preserve" y="12" clip-path="url(#clipPath6)" stroke="none"
      >Company</text
    >
        </g
        >
        <g font-size="11px" transform="translate(295,264)" fill-opacity="1" fill="rgb(122,207,245)"
           text-rendering="geometricPrecision" image-rendering="optimizeQuality" font-family="sans-serif"
           stroke="rgb(122,207,245)" font-weight="bold" stroke-opacity="1"
        >
            <rect x="0" width="198" height="67" y="0" clip-path="url(#clipPath7)" stroke="none"
            />
        </g
        >
        <g fill-opacity="1" text-rendering="geometricPrecision" stroke="black" stroke-linecap="butt"
           transform="translate(295,264)" stroke-miterlimit="0" stroke-opacity="1" fill="black" font-weight="bold"
           font-family="sans-serif" stroke-linejoin="round" font-size="11px" image-rendering="optimizeQuality"
        >
            <rect fill="none" x="0" width="198" height="67" y="0" clip-path="url(#clipPath7)"
            />
            <line y2="15" fill="none" x1="0" clip-path="url(#clipPath7)" x2="198" y1="15"
            />
        </g
        >
        <g font-size="11px" transform="matrix(1,0,0,1,295,279)" fill-opacity="1" fill="black"
           text-rendering="geometricPrecision" image-rendering="optimizeQuality" font-family="sans-serif" stroke="black"
           stroke-opacity="1"
        >
            <text x="2" xml:space="preserve" y="14" clip-path="url(#clipPath8)" stroke="none"
      >-name : string</text
    >
        </g
        >
        <g font-size="11px" transform="matrix(1,0,0,1,295,279)" fill-opacity="1" fill="black"
           text-rendering="geometricPrecision" image-rendering="optimizeQuality" font-family="sans-serif" stroke="black"
           stroke-opacity="1"
        >
            <text x="2" xml:space="preserve" y="29" clip-path="url(#clipPath8)" stroke="none"
      >-email : string</text
    >
        </g
        >
        <g font-size="11px" transform="matrix(1,0,0,1,295,279)" fill-opacity="1" fill="black"
           text-rendering="geometricPrecision" image-rendering="optimizeQuality" font-family="sans-serif" stroke="black"
           stroke-opacity="1"
        >
            <text x="2" xml:space="preserve" y="44" clip-path="url(#clipPath8)" stroke="none"
      >-password : string</text
    >
        </g
        >
        <g font-size="11px" transform="translate(295,264)" fill-opacity="1" fill="black"
           text-rendering="geometricPrecision" image-rendering="optimizeQuality" font-family="sans-serif" stroke="black"
           font-weight="bold" stroke-opacity="1"
        >
            <text x="86" xml:space="preserve" y="12" clip-path="url(#clipPath3)" stroke="none"
      >User</text
    >
        </g
        >
        <g font-size="11px" transform="translate(27,11)" fill-opacity="1" fill="rgb(122,207,245)"
           text-rendering="geometricPrecision" image-rendering="optimizeQuality" font-family="sans-serif"
           stroke="rgb(122,207,245)" font-weight="bold" stroke-opacity="1"
        >
            <rect x="0" width="80" height="40" y="0" clip-path="url(#clipPath9)" stroke="none"
            />
        </g
        >
        <g fill-opacity="1" text-rendering="geometricPrecision" stroke="black" stroke-linecap="butt"
           transform="translate(27,11)" stroke-miterlimit="0" stroke-opacity="1" fill="black" font-weight="bold"
           font-family="sans-serif" stroke-linejoin="round" font-size="11px" image-rendering="optimizeQuality"
        >
            <rect fill="none" x="0" width="80" height="40" y="0" clip-path="url(#clipPath9)"
            />
            <line y2="15" fill="none" x1="0" clip-path="url(#clipPath9)" x2="80" y1="15"
            />
        </g
        >
        <g font-size="11px" transform="translate(27,11)" fill-opacity="1" fill="black"
           text-rendering="geometricPrecision" image-rendering="optimizeQuality" font-family="sans-serif" stroke="black"
           font-weight="bold" stroke-opacity="1"
        >
            <text x="6" xml:space="preserve" y="12" clip-path="url(#clipPath11)" stroke="none"
      >Receptionist</text
    >
        </g
        >
        <g stroke-linecap="butt" font-size="11px" transform="translate(359,124)" fill-opacity="1" fill="black"
           text-rendering="geometricPrecision" image-rendering="optimizeQuality" font-family="sans-serif"
           stroke-linejoin="round" stroke="black" stroke-opacity="1"
        >
            <line y2="46" fill="none" x1="45" clip-path="url(#clipPath13)" x2="45" y1="139"
            />
        </g
        >
        <g stroke-linecap="butt" font-size="11px" transform="translate(63,-13)" fill-opacity="1" fill="black"
           text-rendering="geometricPrecision" image-rendering="optimizeQuality" font-family="sans-serif"
           stroke-linejoin="round" stroke="black" stroke-opacity="1"
        >
            <line y2="45" fill="none" x1="46" clip-path="url(#clipPath15)" x2="232" y1="45"
            />
        </g
        >
        <g stroke-linecap="butt" font-size="11px" transform="translate(87,81)" fill-opacity="1" fill="black"
           text-rendering="geometricPrecision" image-rendering="optimizeQuality" font-family="sans-serif"
           stroke-linejoin="round" stroke="black" stroke-opacity="1"
        >
            <line y2="45" fill="none" x1="208" clip-path="url(#clipPath17)" x2="45" y1="45"
            />
        </g
        >
        <g font-size="11px" transform="translate(192,117)" fill-opacity="1" fill="black"
           text-rendering="geometricPrecision" image-rendering="optimizeQuality" font-family="sans-serif" stroke="black"
           stroke-opacity="1"
        >
            <path d="M14.5 6.5 L1.5 11.5 L1.5 1.5 Z" stroke="none" clip-path="url(#clipPath19)"
            />
            <text x="28" xml:space="preserve" y="12" clip-path="url(#clipPath18)" transform="translate(-10,0)"
                  stroke="none"
            >owns</text
            >
        </g
        >
        <g font-size="11px" transform="translate(142,26)" fill-opacity="1" fill="black"
           text-rendering="geometricPrecision" image-rendering="optimizeQuality" font-family="sans-serif" stroke="black"
           stroke-opacity="1"
        >
            <path d="M14.5 6.5 L1.5 11.5 L1.5 1.5 Z" stroke="none" clip-path="url(#clipPath21)"
            />
            <text x="28" xml:space="preserve" y="12" clip-path="url(#clipPath20)" transform="translate(-11,0)"
                  stroke="none"
            >records data from</text
            >
        </g
        >
        <g font-size="11px" transform="translate(370,212)" fill-opacity="1" fill="black"
           text-rendering="geometricPrecision" image-rendering="optimizeQuality" font-family="sans-serif" stroke="black"
           stroke-opacity="1"
        >
            <path d="M8 13 L3 0 L13 0 Z" stroke="none" clip-path="url(#clipPath23)"
            />
            <text x="28" xml:space="preserve" y="12" clip-path="url(#clipPath22)" transform="translate(-10,0)"
                  stroke="none"
            >becomes</text
            >
        </g
        >
        <g font-size="8px" fill-opacity="1" fill="rgb(120,120,120)" text-rendering="geometricPrecision"
           image-rendering="optimizeQuality" stroke="rgb(120,120,120)" stroke-opacity="1"
        >
            <text x="0" xml:space="preserve" y="10" stroke="none"
      >Visual Paradigm Standard(Miguel Dias(Instituto Superior de Engenharia do Porto))</text
    >
        </g
        >
    </g
    >
</svg
>
